(module LSM9DS1TR (layer F.Cu) (tedit 54B3ECE0)
  (fp_text reference LSM9DS1TR (at -0.015 -2.4) (layer F.SilkS)
    (effects (font (size 0.3 0.3) (thickness 0.075)))
  )
  (fp_text value VAL** (at -0.02 0) (layer F.SilkS)
    (effects (font (size 0.5 0.5) (thickness 0.125)))
  )
  (fp_circle (center 0.75 -0.6) (end 0.95 -0.7) (layer F.SilkS) (width 0.15))
  (fp_line (start -1.75 -1.5) (end -1.75 1.5) (layer F.SilkS) (width 0.15))
  (fp_line (start -1.75 1.5) (end 1.75 1.5) (layer F.SilkS) (width 0.15))
  (fp_line (start 1.75 1.5) (end 1.75 -1.5) (layer F.SilkS) (width 0.15))
  (fp_line (start 1.75 -1.5) (end -1.75 -1.5) (layer F.SilkS) (width 0.15))
  (pad 18 smd rect (at -1.505 -1.4) (size 0.25 0.65) (layers F.Cu F.Paste F.Mask))
  (pad 19 smd rect (at -1.075 -1.4) (size 0.25 0.65) (layers F.Cu F.Paste F.Mask))
  (pad 20 smd rect (at -0.645 -1.4) (size 0.25 0.65) (layers F.Cu F.Paste F.Mask))
  (pad 21 smd rect (at -0.215 -1.4) (size 0.25 0.65) (layers F.Cu F.Paste F.Mask))
  (pad 22 smd rect (at 0.215 -1.4) (size 0.25 0.65) (layers F.Cu F.Paste F.Mask))
  (pad 23 smd rect (at 0.645 -1.4) (size 0.25 0.65) (layers F.Cu F.Paste F.Mask))
  (pad 24 smd rect (at 1.075 -1.4) (size 0.25 0.65) (layers F.Cu F.Paste F.Mask))
  (pad 1 smd rect (at 1.505 -1.4) (size 0.25 0.65) (layers F.Cu F.Paste F.Mask))
  (pad 13 smd rect (at -1.5 1.4) (size 0.25 0.65) (layers F.Cu F.Paste F.Mask))
  (pad 12 smd rect (at -1.08 1.4) (size 0.25 0.65) (layers F.Cu F.Paste F.Mask))
  (pad 11 smd rect (at -0.65 1.4) (size 0.25 0.65) (layers F.Cu F.Paste F.Mask))
  (pad 10 smd rect (at -0.215 1.4) (size 0.25 0.65) (layers F.Cu F.Paste F.Mask))
  (pad 9 smd rect (at 0.215 1.4) (size 0.25 0.65) (layers F.Cu F.Paste F.Mask))
  (pad 8 smd rect (at 0.64 1.4) (size 0.25 0.65) (layers F.Cu F.Paste F.Mask))
  (pad 7 smd rect (at 1.075 1.4) (size 0.25 0.65) (layers F.Cu F.Paste F.Mask))
  (pad 6 smd rect (at 1.5 1.4) (size 0.25 0.65) (layers F.Cu F.Paste F.Mask))
  (pad 17 smd rect (at -1.65 -0.65) (size 0.65 0.25) (layers F.Cu F.Paste F.Mask))
  (pad 16 smd rect (at -1.65 -0.25) (size 0.65 0.25) (layers F.Cu F.Paste F.Mask))
  (pad 15 smd rect (at -1.65 0.2) (size 0.65 0.25) (layers F.Cu F.Paste F.Mask))
  (pad 14 smd rect (at -1.65 0.65) (size 0.65 0.25) (layers F.Cu F.Paste F.Mask))
  (pad 2 smd rect (at 1.65 -0.65) (size 0.65 0.25) (layers F.Cu F.Paste F.Mask))
  (pad 3 smd rect (at 1.65 -0.25) (size 0.65 0.25) (layers F.Cu F.Paste F.Mask))
  (pad 4 smd rect (at 1.65 0.2) (size 0.65 0.25) (layers F.Cu F.Paste F.Mask))
  (pad 5 smd rect (at 1.65 0.65) (size 0.65 0.25) (layers F.Cu F.Paste F.Mask))
)
