(module SN74LVC2T45 (layer F.Cu) (tedit 54B3EC8F)
  (fp_text reference SN74LVC2T45 (at -0.2 -2.7) (layer F.SilkS)
    (effects (font (size 0.5 0.5) (thickness 0.125)))
  )
  (fp_text value VAL** (at 0.15 0.1) (layer F.SilkS)
    (effects (font (size 0.5 0.5) (thickness 0.125)))
  )
  (fp_arc (start -1.1 0) (end -1.1 -0.35) (angle 90) (layer F.SilkS) (width 0.15))
  (fp_arc (start -1.1 0) (end -0.75 0) (angle 90) (layer F.SilkS) (width 0.15))
  (fp_line (start -1.1 -0.85) (end -1.1 0.85) (layer F.SilkS) (width 0.15))
  (fp_line (start -1.1 0.85) (end 1.1 0.85) (layer F.SilkS) (width 0.15))
  (fp_line (start 1.1 0.85) (end 1.1 -0.85) (layer F.SilkS) (width 0.15))
  (fp_line (start 1.1 -0.85) (end -1.1 -0.85) (layer F.SilkS) (width 0.15))
  (fp_line (start -1.1 -0.85) (end -1.05 -0.85) (layer F.SilkS) (width 0.15))
  (pad 8 smd rect (at -0.7 -1.5) (size 0.25 0.75) (layers F.Cu F.Paste F.Mask))
  (pad 7 smd rect (at -0.25 -1.5) (size 0.25 0.75) (layers F.Cu F.Paste F.Mask))
  (pad 6 smd rect (at 0.25 -1.5) (size 0.25 0.75) (layers F.Cu F.Paste F.Mask))
  (pad 5 smd rect (at 0.7 -1.5) (size 0.25 0.75) (layers F.Cu F.Paste F.Mask))
  (pad 1 smd rect (at -0.7 1.55) (size 0.25 0.75) (layers F.Cu F.Paste F.Mask))
  (pad 2 smd rect (at -0.25 1.55) (size 0.25 0.75) (layers F.Cu F.Paste F.Mask))
  (pad 3 smd rect (at 0.25 1.55) (size 0.25 0.75) (layers F.Cu F.Paste F.Mask))
  (pad 4 smd rect (at 0.7 1.55) (size 0.25 0.75) (layers F.Cu F.Paste F.Mask))
)
