EESchema Schematic File Version 2
LIBS:power
LIBS:device
LIBS:transistors
LIBS:conn
LIBS:linear
LIBS:regul
LIBS:74xx
LIBS:cmos4000
LIBS:adc-dac
LIBS:memory
LIBS:xilinx
LIBS:special
LIBS:microcontrollers
LIBS:dsp
LIBS:microchip
LIBS:analog_switches
LIBS:motorola
LIBS:texas
LIBS:intel
LIBS:audio
LIBS:interface
LIBS:digital-audio
LIBS:philips
LIBS:display
LIBS:cypress
LIBS:siliconi
LIBS:opto
LIBS:atmel
LIBS:contrib
LIBS:valves
LIBS:quadcopter_custom
LIBS:prototype_0-cache
EELAYER 25 0
EELAYER END
$Descr A4 11693 8268
encoding utf-8
Sheet 4 5
Title ""
Date "8 jan 2015"
Rev ""
Comp ""
Comment1 ""
Comment2 ""
Comment3 ""
Comment4 ""
$EndDescr
Text HLabel 1200 3750 0    60   Input ~ 0
FT_SK
Text HLabel 1200 3850 0    60   Output ~ 0
FT_DO
Text HLabel 1200 3950 0    60   Input ~ 0
FT_DI
Text HLabel 1200 4050 0    60   Input ~ 0
FT_CS
Text HLabel 1200 4250 0    60   Input ~ 0
nDBG_RST
Text HLabel 1200 4350 0    60   Input ~ 0
nDBGEN
Text HLabel 1200 4450 0    60   Input ~ 0
DBGMOD
$Comp
L SN74LVC125A U4
U 1 1 54AF1274
P 3350 2650
F 0 "U4" H 3400 3100 60  0000 C CNN
F 1 "SN74LVC125A" H 3350 2200 60  0000 C CNN
F 2 "" H 3350 2650 60  0000 C CNN
F 3 "" H 3350 2650 60  0000 C CNN
	1    3350 2650
	1    0    0    -1  
$EndComp
$Comp
L SN74LVC125A U7
U 1 1 54AF1281
P 4700 4250
F 0 "U7" H 4750 4700 60  0000 C CNN
F 1 "SN74LVC125A" H 4700 3800 60  0000 C CNN
F 2 "" H 4700 4250 60  0000 C CNN
F 3 "" H 4700 4250 60  0000 C CNN
	1    4700 4250
	1    0    0    -1  
$EndComp
$Comp
L SN74LVC125A U9
U 1 1 54AF1287
P 6950 5900
F 0 "U9" H 7000 6350 60  0000 C CNN
F 1 "SN74LVC125A" H 6950 5450 60  0000 C CNN
F 2 "" H 6950 5900 60  0000 C CNN
F 3 "" H 6950 5900 60  0000 C CNN
	1    6950 5900
	1    0    0    -1  
$EndComp
Text HLabel 8650 3600 2    60   Output ~ 0
JTAG_TCK
Text HLabel 8650 3750 2    60   Output ~ 0
JTAG_TDI
Text HLabel 8650 3900 2    60   Output ~ 0
JTAG_TMS
Text HLabel 8650 4050 2    60   Input ~ 0
JTAG_TDO
$Comp
L +3.3V #PWR?
U 1 1 54AF1432
P 3800 4250
F 0 "#PWR?" H 3800 4210 30  0001 C CNN
F 1 "+3.3V" H 3800 4360 30  0000 C CNN
F 2 "" H 3800 4250 60  0000 C CNN
F 3 "" H 3800 4250 60  0000 C CNN
	1    3800 4250
	1    0    0    -1  
$EndComp
Wire Wire Line
	3800 4250 4150 4250
$Comp
L R R?
U 1 1 54AF1444
P 3900 4600
F 0 "R?" V 3980 4600 40  0000 C CNN
F 1 "10k" V 3907 4601 40  0000 C CNN
F 2 "~" V 3830 4600 30  0000 C CNN
F 3 "~" H 3900 4600 30  0000 C CNN
	1    3900 4600
	1    0    0    -1  
$EndComp
$Comp
L GND #PWR?
U 1 1 54AF1453
P 3900 4900
F 0 "#PWR?" H 3900 4900 30  0001 C CNN
F 1 "GND" H 3900 4830 30  0001 C CNN
F 2 "" H 3900 4900 60  0000 C CNN
F 3 "" H 3900 4900 60  0000 C CNN
	1    3900 4900
	1    0    0    -1  
$EndComp
Wire Wire Line
	3900 4350 4150 4350
Wire Wire Line
	3900 4850 3900 4900
$Comp
L C C?
U 1 1 54AF1467
P 3750 4500
F 0 "C?" H 3750 4600 40  0000 L CNN
F 1 "0.1uF" H 3756 4415 40  0000 L CNN
F 2 "~" H 3788 4350 30  0000 C CNN
F 3 "~" H 3750 4500 60  0000 C CNN
	1    3750 4500
	1    0    0    -1  
$EndComp
$Comp
L GND #PWR?
U 1 1 54AF1474
P 3750 4750
F 0 "#PWR?" H 3750 4750 30  0001 C CNN
F 1 "GND" H 3750 4680 30  0001 C CNN
F 2 "" H 3750 4750 60  0000 C CNN
F 3 "" H 3750 4750 60  0000 C CNN
	1    3750 4750
	1    0    0    -1  
$EndComp
Wire Wire Line
	3750 4300 3800 4300
Wire Wire Line
	3800 4300 3800 4250
Wire Wire Line
	3750 4700 3750 4750
$Comp
L GND #PWR?
U 1 1 54AF1626
P 4150 4600
F 0 "#PWR?" H 4150 4600 30  0001 C CNN
F 1 "GND" H 4150 4530 30  0001 C CNN
F 2 "" H 4150 4600 60  0000 C CNN
F 3 "" H 4150 4600 60  0000 C CNN
	1    4150 4600
	1    0    0    -1  
$EndComp
Wire Wire Line
	4150 4550 4150 4600
NoConn ~ 4150 4450
$Comp
L +3.3V #PWR?
U 1 1 54AF163A
P 5550 3400
F 0 "#PWR?" H 5550 3360 30  0001 C CNN
F 1 "+3.3V" H 5550 3510 30  0000 C CNN
F 2 "" H 5550 3400 60  0000 C CNN
F 3 "" H 5550 3400 60  0000 C CNN
	1    5550 3400
	1    0    0    -1  
$EndComp
$Comp
L C C?
U 1 1 54AF1642
P 5550 3650
F 0 "C?" H 5550 3750 40  0000 L CNN
F 1 "C" H 5556 3565 40  0000 L CNN
F 2 "~" H 5588 3500 30  0000 C CNN
F 3 "~" H 5550 3650 60  0000 C CNN
	1    5550 3650
	1    0    0    -1  
$EndComp
$Comp
L C C?
U 1 1 54AF1659
P 4250 2050
F 0 "C?" H 4250 2150 40  0000 L CNN
F 1 "C" H 4256 1965 40  0000 L CNN
F 2 "~" H 4288 1900 30  0000 C CNN
F 3 "~" H 4250 2050 60  0000 C CNN
	1    4250 2050
	1    0    0    -1  
$EndComp
$Comp
L C C?
U 1 1 54AF165F
P 7700 5300
F 0 "C?" H 7700 5400 40  0000 L CNN
F 1 "C" H 7706 5215 40  0000 L CNN
F 2 "~" H 7738 5150 30  0000 C CNN
F 3 "~" H 7700 5300 60  0000 C CNN
	1    7700 5300
	1    0    0    -1  
$EndComp
$Comp
L +3.3V #PWR?
U 1 1 54AF1665
P 7700 5050
F 0 "#PWR?" H 7700 5010 30  0001 C CNN
F 1 "+3.3V" H 7700 5160 30  0000 C CNN
F 2 "" H 7700 5050 60  0000 C CNN
F 3 "" H 7700 5050 60  0000 C CNN
	1    7700 5050
	1    0    0    -1  
$EndComp
$Comp
L +3.3V #PWR?
U 1 1 54AF166B
P 4250 1800
F 0 "#PWR?" H 4250 1760 30  0001 C CNN
F 1 "+3.3V" H 4250 1910 30  0000 C CNN
F 2 "" H 4250 1800 60  0000 C CNN
F 3 "" H 4250 1800 60  0000 C CNN
	1    4250 1800
	1    0    0    -1  
$EndComp
$Comp
L GND #PWR?
U 1 1 54AF167D
P 4250 2300
F 0 "#PWR?" H 4250 2300 30  0001 C CNN
F 1 "GND" H 4250 2230 30  0001 C CNN
F 2 "" H 4250 2300 60  0000 C CNN
F 3 "" H 4250 2300 60  0000 C CNN
	1    4250 2300
	1    0    0    -1  
$EndComp
$Comp
L GND #PWR?
U 1 1 54AF1696
P 5550 3900
F 0 "#PWR?" H 5550 3900 30  0001 C CNN
F 1 "GND" H 5550 3830 30  0001 C CNN
F 2 "" H 5550 3900 60  0000 C CNN
F 3 "" H 5550 3900 60  0000 C CNN
	1    5550 3900
	1    0    0    -1  
$EndComp
$Comp
L GND #PWR?
U 1 1 54AF16A3
P 7700 5550
F 0 "#PWR?" H 7700 5550 30  0001 C CNN
F 1 "GND" H 7700 5480 30  0001 C CNN
F 2 "" H 7700 5550 60  0000 C CNN
F 3 "" H 7700 5550 60  0000 C CNN
	1    7700 5550
	1    0    0    -1  
$EndComp
Wire Wire Line
	4250 2250 4250 2300
Wire Wire Line
	4250 1850 4250 1800
Wire Wire Line
	3950 2350 4050 2350
Wire Wire Line
	4050 2350 4050 1850
Wire Wire Line
	4050 1850 4250 1850
Wire Wire Line
	5550 3400 5550 3450
Wire Wire Line
	5550 3850 5550 3900
Wire Wire Line
	5300 3950 5450 3950
Wire Wire Line
	5450 3950 5450 3450
Wire Wire Line
	5450 3450 5550 3450
Wire Wire Line
	7700 5050 7700 5100
Wire Wire Line
	7700 5500 7700 5550
Wire Wire Line
	7550 5600 7600 5600
Wire Wire Line
	7600 5600 7600 5100
Wire Wire Line
	7600 5100 7700 5100
$Comp
L GND #PWR?
U 1 1 54AF18B1
P 2700 3000
F 0 "#PWR?" H 2700 3000 30  0001 C CNN
F 1 "GND" H 2700 2930 30  0001 C CNN
F 2 "" H 2700 3000 60  0000 C CNN
F 3 "" H 2700 3000 60  0000 C CNN
	1    2700 3000
	1    0    0    -1  
$EndComp
$Comp
L GND #PWR?
U 1 1 54AF18B7
P 6350 6300
F 0 "#PWR?" H 6350 6300 30  0001 C CNN
F 1 "GND" H 6350 6230 30  0001 C CNN
F 2 "" H 6350 6300 60  0000 C CNN
F 3 "" H 6350 6300 60  0000 C CNN
	1    6350 6300
	1    0    0    -1  
$EndComp
Wire Wire Line
	2800 2950 2700 2950
Wire Wire Line
	2700 2950 2700 3000
Wire Wire Line
	6400 6200 6350 6200
Wire Wire Line
	6350 6200 6350 6300
$Comp
L R R?
U 1 1 54AF1A71
P 6000 5900
F 0 "R?" V 6080 5900 40  0000 C CNN
F 1 "10k" V 6007 5901 40  0000 C CNN
F 2 "~" V 5930 5900 30  0000 C CNN
F 3 "~" H 6000 5900 30  0000 C CNN
	1    6000 5900
	1    0    0    -1  
$EndComp
$Comp
L GND #PWR?
U 1 1 54AF1A77
P 6000 6200
F 0 "#PWR?" H 6000 6200 30  0001 C CNN
F 1 "GND" H 6000 6130 30  0001 C CNN
F 2 "" H 6000 6200 60  0000 C CNN
F 3 "" H 6000 6200 60  0000 C CNN
	1    6000 6200
	1    0    0    -1  
$EndComp
$Comp
L GND #PWR?
U 1 1 54AF1A7D
P 5800 5950
F 0 "#PWR?" H 5800 5950 30  0001 C CNN
F 1 "GND" H 5800 5880 30  0001 C CNN
F 2 "" H 5800 5950 60  0000 C CNN
F 3 "" H 5800 5950 60  0000 C CNN
	1    5800 5950
	1    0    0    -1  
$EndComp
$Comp
L C C?
U 1 1 54AF1A83
P 5800 5700
F 0 "C?" H 5800 5800 40  0000 L CNN
F 1 "0.1uF" H 5806 5615 40  0000 L CNN
F 2 "~" H 5838 5550 30  0000 C CNN
F 3 "~" H 5800 5700 60  0000 C CNN
	1    5800 5700
	1    0    0    -1  
$EndComp
$Comp
L +3.3V #PWR?
U 1 1 54AF1A89
P 5800 5400
F 0 "#PWR?" H 5800 5360 30  0001 C CNN
F 1 "+3.3V" H 5800 5510 30  0000 C CNN
F 2 "" H 5800 5400 60  0000 C CNN
F 3 "" H 5800 5400 60  0000 C CNN
	1    5800 5400
	1    0    0    -1  
$EndComp
Wire Wire Line
	6000 5650 6200 5650
Wire Wire Line
	6200 5650 6200 5700
Wire Wire Line
	6200 5700 6400 5700
Wire Wire Line
	6000 6150 6000 6200
Wire Wire Line
	5800 5400 5800 5500
Wire Wire Line
	5800 5900 5800 5950
Wire Wire Line
	5800 5500 6200 5500
Wire Wire Line
	6200 5500 6200 5600
Wire Wire Line
	6200 5600 6400 5600
Wire Wire Line
	3950 2550 4050 2550
Wire Wire Line
	4050 2550 4050 3750
Wire Wire Line
	4050 3750 1200 3750
Wire Wire Line
	1200 3850 4000 3850
Wire Wire Line
	4000 2850 4000 4050
Wire Wire Line
	4000 2850 3950 2850
Wire Wire Line
	4000 4050 4150 4050
Connection ~ 4000 3850
Wire Wire Line
	1200 4450 2100 4450
Wire Wire Line
	2100 4450 2100 2450
Wire Wire Line
	2100 2450 2800 2450
Wire Wire Line
	2800 2750 2100 2750
Connection ~ 2100 2750
Wire Wire Line
	1200 4350 2150 4350
Wire Wire Line
	2150 4350 2150 2350
Wire Wire Line
	2150 2350 2800 2350
Wire Wire Line
	2750 2200 2750 2650
Wire Wire Line
	2750 2650 2800 2650
Connection ~ 2750 2350
Wire Wire Line
	2750 2200 4000 2200
Wire Wire Line
	4000 2200 4000 2750
Wire Wire Line
	4000 2450 3950 2450
Wire Wire Line
	4000 2750 3950 2750
Connection ~ 4000 2450
Wire Wire Line
	1200 3950 3950 3950
Wire Wire Line
	3950 3950 3950 5950
Wire Wire Line
	3950 4300 5300 4300
Wire Wire Line
	5300 4300 5300 4250
Wire Wire Line
	3950 5950 7550 5950
Wire Wire Line
	7550 5950 7550 5900
Connection ~ 3950 4300
Wire Wire Line
	1200 4050 3900 4050
Wire Wire Line
	3900 4100 5350 4100
Wire Wire Line
	5350 4100 5350 6000
Wire Wire Line
	5350 4450 5300 4450
Wire Wire Line
	3900 4050 3900 4100
Wire Wire Line
	5350 6000 6400 6000
Connection ~ 5350 4450
$Comp
L R R?
U 1 1 54AF2001
P 1950 2800
F 0 "R?" V 2030 2800 40  0000 C CNN
F 1 "10k" V 1957 2801 40  0000 C CNN
F 2 "~" V 1880 2800 30  0000 C CNN
F 3 "~" H 1950 2800 30  0000 C CNN
	1    1950 2800
	1    0    0    -1  
$EndComp
$Comp
L GND #PWR?
U 1 1 54AF200E
P 1950 3050
F 0 "#PWR?" H 1950 3050 30  0001 C CNN
F 1 "GND" H 1950 2980 30  0001 C CNN
F 2 "" H 1950 3050 60  0000 C CNN
F 3 "" H 1950 3050 60  0000 C CNN
	1    1950 3050
	1    0    0    -1  
$EndComp
Wire Wire Line
	2800 2550 1950 2550
Wire Wire Line
	5300 4350 5300 4400
Wire Wire Line
	5300 4400 2650 4400
Wire Wire Line
	2650 4400 2650 2550
Connection ~ 2650 2550
Wire Wire Line
	5300 4350 5400 4350
Wire Wire Line
	5400 4350 5400 4050
Wire Wire Line
	5400 4050 5300 4050
$Comp
L +3.3V #PWR?
U 1 1 54AF2154
P 1800 2150
F 0 "#PWR?" H 1800 2110 30  0001 C CNN
F 1 "+3.3V" H 1800 2260 30  0000 C CNN
F 2 "" H 1800 2150 60  0000 C CNN
F 3 "" H 1800 2150 60  0000 C CNN
	1    1800 2150
	1    0    0    -1  
$EndComp
$Comp
L R R?
U 1 1 54AF2161
P 1800 2450
F 0 "R?" V 1880 2450 40  0000 C CNN
F 1 "10k" V 1807 2451 40  0000 C CNN
F 2 "~" V 1730 2450 30  0000 C CNN
F 3 "~" H 1800 2450 30  0000 C CNN
	1    1800 2450
	1    0    0    -1  
$EndComp
Wire Wire Line
	2800 2850 1800 2850
Wire Wire Line
	1800 2850 1800 2700
Wire Wire Line
	1800 2200 1800 2150
Wire Wire Line
	2600 2850 2600 5850
Wire Wire Line
	2600 5850 7000 5850
Wire Wire Line
	6150 5850 6150 5900
Wire Wire Line
	6150 5900 6400 5900
Connection ~ 2600 2850
Wire Wire Line
	7000 5850 7000 5650
Wire Wire Line
	7000 5650 7550 5650
Wire Wire Line
	7550 5650 7550 5700
Connection ~ 6150 5850
$Comp
L R R?
U 1 1 54AF22C2
P 8200 3600
F 0 "R?" V 8280 3600 40  0000 C CNN
F 1 "33" V 8207 3601 40  0000 C CNN
F 2 "~" V 8130 3600 30  0000 C CNN
F 3 "~" H 8200 3600 30  0000 C CNN
	1    8200 3600
	0    -1   -1   0   
$EndComp
$Comp
L R R?
U 1 1 54AF22D4
P 8200 3750
F 0 "R?" V 8280 3750 40  0000 C CNN
F 1 "33" V 8207 3751 40  0000 C CNN
F 2 "~" V 8130 3750 30  0000 C CNN
F 3 "~" H 8200 3750 30  0000 C CNN
	1    8200 3750
	0    -1   -1   0   
$EndComp
$Comp
L R R?
U 1 1 54AF22DA
P 8200 3900
F 0 "R?" V 8280 3900 40  0000 C CNN
F 1 "33" V 8207 3901 40  0000 C CNN
F 2 "~" V 8130 3900 30  0000 C CNN
F 3 "~" H 8200 3900 30  0000 C CNN
	1    8200 3900
	0    -1   -1   0   
$EndComp
$Comp
L R R?
U 1 1 54AF22E0
P 8200 4050
F 0 "R?" V 8280 4050 40  0000 C CNN
F 1 "33" V 8207 4051 40  0000 C CNN
F 2 "~" V 8130 4050 30  0000 C CNN
F 3 "~" H 8200 4050 30  0000 C CNN
	1    8200 4050
	0    -1   -1   0   
$EndComp
Wire Wire Line
	8450 3600 8650 3600
Wire Wire Line
	8450 3750 8650 3750
Wire Wire Line
	8450 3900 8650 3900
Wire Wire Line
	8450 4050 8650 4050
Wire Wire Line
	3950 2650 7750 2650
Wire Wire Line
	7750 2650 7750 3600
Wire Wire Line
	7750 3600 7950 3600
Wire Wire Line
	3950 2950 7650 2950
Wire Wire Line
	7650 2950 7650 3750
Wire Wire Line
	7650 3750 7950 3750
Wire Wire Line
	4150 3950 4050 3950
Wire Wire Line
	4050 3950 4050 6100
Wire Wire Line
	4050 6100 6400 6100
$Comp
L R R?
U 1 1 54AF2610
P 4850 6400
F 0 "R?" V 4930 6400 40  0000 C CNN
F 1 "10k" V 4857 6401 40  0000 C CNN
F 2 "~" V 4780 6400 30  0000 C CNN
F 3 "~" H 4850 6400 30  0000 C CNN
	1    4850 6400
	1    0    0    -1  
$EndComp
$Comp
L GND #PWR?
U 1 1 54AF2629
P 4850 6650
F 0 "#PWR?" H 4850 6650 30  0001 C CNN
F 1 "GND" H 4850 6580 30  0001 C CNN
F 2 "" H 4850 6650 60  0000 C CNN
F 3 "" H 4850 6650 60  0000 C CNN
	1    4850 6650
	1    0    0    -1  
$EndComp
Wire Wire Line
	4850 6100 4850 6150
Connection ~ 4850 6100
Wire Wire Line
	4150 4150 4100 4150
Wire Wire Line
	4100 4150 4100 4200
Wire Wire Line
	4100 4200 6950 4200
Wire Wire Line
	6950 3900 6950 5450
Wire Wire Line
	6950 3900 7950 3900
Wire Wire Line
	5300 4550 5500 4550
Wire Wire Line
	5500 4550 5500 4200
Connection ~ 5500 4200
Wire Wire Line
	5300 4150 7000 4150
Wire Wire Line
	7000 4150 7000 4050
Wire Wire Line
	7000 4050 7950 4050
NoConn ~ 6400 5800
Wire Wire Line
	6950 5450 7500 5450
Wire Wire Line
	7500 5450 7500 5750
Wire Wire Line
	7500 5750 7550 5750
Wire Wire Line
	7550 5750 7550 5800
Connection ~ 6950 4200
$Comp
L R R?
U 1 1 54AF28DF
P 7950 6350
F 0 "R?" V 8030 6350 40  0000 C CNN
F 1 "10k" V 7957 6351 40  0000 C CNN
F 2 "~" V 7880 6350 30  0000 C CNN
F 3 "~" H 7950 6350 30  0000 C CNN
	1    7950 6350
	1    0    0    -1  
$EndComp
$Comp
L GND #PWR?
U 1 1 54AF28E5
P 7950 6650
F 0 "#PWR?" H 7950 6650 30  0001 C CNN
F 1 "GND" H 7950 6580 30  0001 C CNN
F 2 "" H 7950 6650 60  0000 C CNN
F 3 "" H 7950 6650 60  0000 C CNN
	1    7950 6650
	1    0    0    -1  
$EndComp
Wire Wire Line
	7550 6100 7950 6100
Wire Wire Line
	7950 6600 7950 6650
Wire Wire Line
	1200 4250 2250 4250
Wire Wire Line
	2250 4250 2250 6750
Wire Wire Line
	2250 6750 7700 6750
Wire Wire Line
	7700 6750 7700 6000
Wire Wire Line
	7700 6000 7550 6000
Text HLabel 8700 6050 2    60   Input ~ 0
nSRST
$Comp
L R R?
U 1 1 54AF2A74
P 8350 6050
F 0 "R?" V 8430 6050 40  0000 C CNN
F 1 "33" V 8357 6051 40  0000 C CNN
F 2 "~" V 8280 6050 30  0000 C CNN
F 3 "~" H 8350 6050 30  0000 C CNN
	1    8350 6050
	0    -1   -1   0   
$EndComp
Wire Wire Line
	8600 6050 8700 6050
Wire Wire Line
	7550 6200 7750 6200
Wire Wire Line
	7750 6200 7750 6050
Wire Wire Line
	7750 6050 8100 6050
$Comp
L +3.3V #PWR?
U 1 1 54AF2D0D
P 3000 6150
F 0 "#PWR?" H 3000 6110 30  0001 C CNN
F 1 "+3.3V" H 3000 6260 30  0000 C CNN
F 2 "" H 3000 6150 60  0000 C CNN
F 3 "" H 3000 6150 60  0000 C CNN
	1    3000 6150
	1    0    0    -1  
$EndComp
$Comp
L R R?
U 1 1 54AF2D1A
P 3000 6450
F 0 "R?" V 3080 6450 40  0000 C CNN
F 1 "10k" V 3007 6451 40  0000 C CNN
F 2 "~" V 2930 6450 30  0000 C CNN
F 3 "~" H 3000 6450 30  0000 C CNN
	1    3000 6450
	1    0    0    -1  
$EndComp
Wire Wire Line
	3000 6150 3000 6200
Wire Wire Line
	3000 6700 3000 6750
Connection ~ 3000 6750
$Comp
L R R?
U 1 1 54AF2E31
P 2300 2000
F 0 "R?" V 2380 2000 40  0000 C CNN
F 1 "10k" V 2307 2001 40  0000 C CNN
F 2 "~" V 2230 2000 30  0000 C CNN
F 3 "~" H 2300 2000 30  0000 C CNN
	1    2300 2000
	1    0    0    -1  
$EndComp
$Comp
L +3.3V #PWR?
U 1 1 54AF2E37
P 2300 1700
F 0 "#PWR?" H 2300 1660 30  0001 C CNN
F 1 "+3.3V" H 2300 1810 30  0000 C CNN
F 2 "" H 2300 1700 60  0000 C CNN
F 3 "" H 2300 1700 60  0000 C CNN
	1    2300 1700
	1    0    0    -1  
$EndComp
Wire Wire Line
	2300 2250 2300 2350
Connection ~ 2300 2350
Wire Wire Line
	2300 1750 2300 1700
$EndSCHEMATC
