EESchema Schematic File Version 2
LIBS:power
LIBS:device
LIBS:transistors
LIBS:conn
LIBS:linear
LIBS:regul
LIBS:74xx
LIBS:cmos4000
LIBS:adc-dac
LIBS:memory
LIBS:xilinx
LIBS:special
LIBS:microcontrollers
LIBS:dsp
LIBS:microchip
LIBS:analog_switches
LIBS:motorola
LIBS:texas
LIBS:intel
LIBS:audio
LIBS:interface
LIBS:digital-audio
LIBS:philips
LIBS:display
LIBS:cypress
LIBS:siliconi
LIBS:opto
LIBS:atmel
LIBS:contrib
LIBS:valves
LIBS:quadcopter_custom
LIBS:prototype_0-cache
EELAYER 25 0
EELAYER END
$Descr A4 11693 8268
encoding utf-8
Sheet 3 5
Title ""
Date "8 jan 2015"
Rev ""
Comp ""
Comment1 ""
Comment2 ""
Comment3 ""
Comment4 ""
$EndDescr
Text HLabel 10400 3000 2    60   Input ~ 0
BRD_JTAG_TDO
Text HLabel 10400 2800 2    60   Output ~ 0
BRD_JTAG_TDI
Text HLabel 10400 2900 2    60   Input ~ 0
BRD_JTAG_TMS
Text HLabel 10400 2700 2    60   Input ~ 0
BRD_JTAG_TCK
$Comp
L FT2232D U?
U 1 1 54AEA05D
P 5800 3850
F 0 "U?" H 5800 3850 60  0000 C CNN
F 1 "FT2232D" H 5800 5400 60  0000 C CNN
F 2 "" H 5800 3850 60  0000 C CNN
F 3 "" H 5800 3850 60  0000 C CNN
	1    5800 3850
	1    0    0    -1  
$EndComp
$Comp
L USB_MICRO J?
U 1 1 54AEA2CE
P 1250 3850
F 0 "J?" H 1250 3850 60  0000 C CNN
F 1 "USB_MICRO" H 900 4200 60  0000 C CNN
F 2 "" H 1250 3850 60  0000 C CNN
F 3 "" H 1250 3850 60  0000 C CNN
	1    1250 3850
	1    0    0    -1  
$EndComp
$Comp
L CIM10 L?
U 1 1 54AEA36C
P 2350 3400
F 0 "L?" H 2350 3400 60  0000 C CNN
F 1 "CIM10" H 2350 3500 60  0000 C CNN
F 2 "" H 2350 3400 60  0000 C CNN
F 3 "" H 2350 3400 60  0000 C CNN
	1    2350 3400
	-1   0    0    1   
$EndComp
$Comp
L CIM10 L?
U 1 1 54AEA379
P 1850 4750
F 0 "L?" H 1850 4750 60  0000 C CNN
F 1 "CIM10" H 1850 4850 60  0000 C CNN
F 2 "" H 1850 4750 60  0000 C CNN
F 3 "" H 1850 4750 60  0000 C CNN
	1    1850 4750
	0    1    1    0   
$EndComp
$Comp
L GND #PWR?
U 1 1 54AEA38B
P 600 4500
F 0 "#PWR?" H 600 4500 30  0001 C CNN
F 1 "GND" H 600 4430 30  0001 C CNN
F 2 "" H 600 4500 60  0000 C CNN
F 3 "" H 600 4500 60  0000 C CNN
	1    600  4500
	1    0    0    -1  
$EndComp
$Comp
L GND #PWR?
U 1 1 54AEA546
P 1850 5200
F 0 "#PWR?" H 1850 5200 30  0001 C CNN
F 1 "GND" H 1850 5130 30  0001 C CNN
F 2 "" H 1850 5200 60  0000 C CNN
F 3 "" H 1850 5200 60  0000 C CNN
	1    1850 5200
	1    0    0    -1  
$EndComp
NoConn ~ 1850 3950
$Comp
L TPD2EUSB30 U?
U 1 1 54AEA8DF
P 2350 4350
F 0 "U?" H 2350 4600 60  0000 C CNN
F 1 "TPD2EUSB30" H 2350 4350 60  0000 C CNN
F 2 "" H 2350 4350 60  0000 C CNN
F 3 "" H 2350 4350 60  0000 C CNN
	1    2350 4350
	1    0    0    -1  
$EndComp
$Comp
L GND #PWR?
U 1 1 54AEA956
P 2350 4900
F 0 "#PWR?" H 2350 4900 30  0001 C CNN
F 1 "GND" H 2350 4830 30  0001 C CNN
F 2 "" H 2350 4900 60  0000 C CNN
F 3 "" H 2350 4900 60  0000 C CNN
	1    2350 4900
	1    0    0    -1  
$EndComp
$Comp
L R R?
U 1 1 54AEA9B8
P 3050 3750
F 0 "R?" V 3130 3750 40  0000 C CNN
F 1 "28 Ohm 1/16W 1% 0402" V 3057 3751 40  0000 C CNN
F 2 "~" V 2980 3750 30  0000 C CNN
F 3 "~" H 3050 3750 30  0000 C CNN
	1    3050 3750
	0    -1   -1   0   
$EndComp
$Comp
L R R?
U 1 1 54AEA9E1
P 3050 3900
F 0 "R?" V 3130 3900 40  0000 C CNN
F 1 "28 Ohm 1/16W 1% 0402" V 3057 3901 40  0000 C CNN
F 2 "~" V 2980 3900 30  0000 C CNN
F 3 "~" H 3050 3900 30  0000 C CNN
	1    3050 3900
	0    -1   -1   0   
$EndComp
$Comp
L R R?
U 1 1 54AEABB0
P 4500 3600
F 0 "R?" V 4580 3600 40  0000 C CNN
F 1 "1.5k" V 4507 3601 40  0000 C CNN
F 2 "~" V 4430 3600 30  0000 C CNN
F 3 "~" H 4500 3600 30  0000 C CNN
	1    4500 3600
	0    -1   -1   0   
$EndComp
$Comp
L C C?
U 1 1 54AEAD5F
P 3850 3350
F 0 "C?" H 3850 3450 40  0000 L CNN
F 1 "33000pF" H 3856 3265 40  0000 L CNN
F 2 "~" H 3888 3200 30  0000 C CNN
F 3 "~" H 3850 3350 60  0000 C CNN
	1    3850 3350
	1    0    0    -1  
$EndComp
$Comp
L GND #PWR?
U 1 1 54AEAD6E
P 3850 3550
F 0 "#PWR?" H 3850 3550 30  0001 C CNN
F 1 "GND" H 3850 3480 30  0001 C CNN
F 2 "" H 3850 3550 60  0000 C CNN
F 3 "" H 3850 3550 60  0000 C CNN
	1    3850 3550
	1    0    0    -1  
$EndComp
$Comp
L GND #PWR?
U 1 1 54AEAE8F
P 4950 5400
F 0 "#PWR?" H 4950 5400 30  0001 C CNN
F 1 "GND" H 4950 5330 30  0001 C CNN
F 2 "" H 4950 5400 60  0000 C CNN
F 3 "" H 4950 5400 60  0000 C CNN
	1    4950 5400
	1    0    0    -1  
$EndComp
$Comp
L +5V #PWR?
U 1 1 54AEB189
P 2800 3200
F 0 "#PWR?" H 2800 3290 20  0001 C CNN
F 1 "+5V" H 2800 3290 30  0000 C CNN
F 2 "" H 2800 3200 60  0000 C CNN
F 3 "" H 2800 3200 60  0000 C CNN
	1    2800 3200
	1    0    0    -1  
$EndComp
$Comp
L +3.3V #PWR?
U 1 1 54AEB2EB
P 4850 2200
F 0 "#PWR?" H 4850 2160 30  0001 C CNN
F 1 "+3.3V" H 4850 2310 30  0000 C CNN
F 2 "" H 4850 2200 60  0000 C CNN
F 3 "" H 4850 2200 60  0000 C CNN
	1    4850 2200
	1    0    0    -1  
$EndComp
$Comp
L +5V #PWR?
U 1 1 54AEB38C
P 4500 2200
F 0 "#PWR?" H 4500 2290 20  0001 C CNN
F 1 "+5V" H 4500 2290 30  0000 C CNN
F 2 "" H 4500 2200 60  0000 C CNN
F 3 "" H 4500 2200 60  0000 C CNN
	1    4500 2200
	1    0    0    -1  
$EndComp
$Comp
L R R?
U 1 1 54AEB39B
P 4500 2500
F 0 "R?" V 4580 2500 40  0000 C CNN
F 1 "470" V 4507 2501 40  0000 C CNN
F 2 "~" V 4430 2500 30  0000 C CNN
F 3 "~" H 4500 2500 30  0000 C CNN
	1    4500 2500
	1    0    0    -1  
$EndComp
$Comp
L C C?
U 1 1 54AEB3AA
P 4250 2850
F 0 "C?" H 4250 2950 40  0000 L CNN
F 1 "0.1uF" H 4256 2765 40  0000 L CNN
F 2 "~" H 4288 2700 30  0000 C CNN
F 3 "~" H 4250 2850 60  0000 C CNN
	1    4250 2850
	1    0    0    -1  
$EndComp
$Comp
L GND #PWR?
U 1 1 54AEB3DB
P 4250 3050
F 0 "#PWR?" H 4250 3050 30  0001 C CNN
F 1 "GND" H 4250 2980 30  0001 C CNN
F 2 "" H 4250 3050 60  0000 C CNN
F 3 "" H 4250 3050 60  0000 C CNN
	1    4250 3050
	1    0    0    -1  
$EndComp
$Comp
L 93LC46B U?
U 1 1 54AEB6F8
P 3400 5350
F 0 "U?" H 3400 5350 60  0000 C CNN
F 1 "93LC46B" H 3400 5600 60  0000 C CNN
F 2 "" H 3400 5350 60  0000 C CNN
F 3 "" H 3400 5350 60  0000 C CNN
	1    3400 5350
	1    0    0    -1  
$EndComp
$Comp
L R R?
U 1 1 54AEB711
P 4050 4700
F 0 "R?" V 4130 4700 40  0000 C CNN
F 1 "10k" V 4057 4701 40  0000 C CNN
F 2 "~" V 3980 4700 30  0000 C CNN
F 3 "~" H 4050 4700 30  0000 C CNN
	1    4050 4700
	1    0    0    -1  
$EndComp
$Comp
L R R?
U 1 1 54AEB71E
P 4250 4700
F 0 "R?" V 4330 4700 40  0000 C CNN
F 1 "10k" V 4257 4701 40  0000 C CNN
F 2 "~" V 4180 4700 30  0000 C CNN
F 3 "~" H 4250 4700 30  0000 C CNN
	1    4250 4700
	1    0    0    -1  
$EndComp
$Comp
L R R?
U 1 1 54AEB724
P 4450 4700
F 0 "R?" V 4530 4700 40  0000 C CNN
F 1 "10k" V 4457 4701 40  0000 C CNN
F 2 "~" V 4380 4700 30  0000 C CNN
F 3 "~" H 4450 4700 30  0000 C CNN
	1    4450 4700
	1    0    0    -1  
$EndComp
$Comp
L R R?
U 1 1 54AEB72A
P 4300 5500
F 0 "R?" V 4380 5500 40  0000 C CNN
F 1 "2.2k" V 4307 5501 40  0000 C CNN
F 2 "~" V 4230 5500 30  0000 C CNN
F 3 "~" H 4300 5500 30  0000 C CNN
	1    4300 5500
	0    -1   -1   0   
$EndComp
$Comp
L C C?
U 1 1 54AEB732
P 2550 5300
F 0 "C?" H 2550 5400 40  0000 L CNN
F 1 "0.1uF" H 2556 5215 40  0000 L CNN
F 2 "~" H 2588 5150 30  0000 C CNN
F 3 "~" H 2550 5300 60  0000 C CNN
	1    2550 5300
	1    0    0    -1  
$EndComp
$Comp
L +3.3V #PWR?
U 1 1 54AEBAFF
P 4250 4300
F 0 "#PWR?" H 4250 4260 30  0001 C CNN
F 1 "+3.3V" H 4250 4410 30  0000 C CNN
F 2 "" H 4250 4300 60  0000 C CNN
F 3 "" H 4250 4300 60  0000 C CNN
	1    4250 4300
	1    0    0    -1  
$EndComp
$Comp
L +3.3V #PWR?
U 1 1 54AEBB0C
P 2550 5050
F 0 "#PWR?" H 2550 5010 30  0001 C CNN
F 1 "+3.3V" H 2550 5160 30  0000 C CNN
F 2 "" H 2550 5050 60  0000 C CNN
F 3 "" H 2550 5050 60  0000 C CNN
	1    2550 5050
	1    0    0    -1  
$EndComp
$Comp
L GND #PWR?
U 1 1 54AEBB12
P 2550 5550
F 0 "#PWR?" H 2550 5550 30  0001 C CNN
F 1 "GND" H 2550 5480 30  0001 C CNN
F 2 "" H 2550 5550 60  0000 C CNN
F 3 "" H 2550 5550 60  0000 C CNN
	1    2550 5550
	1    0    0    -1  
$EndComp
$Comp
L CRYSTAL X?
U 1 1 54AEBDCC
P 3400 4250
F 0 "X?" H 3400 4400 60  0000 C CNN
F 1 "6MHz" H 3400 4100 60  0000 C CNN
F 2 "~" H 3400 4250 60  0000 C CNN
F 3 "~" H 3400 4250 60  0000 C CNN
	1    3400 4250
	1    0    0    -1  
$EndComp
$Comp
L C C?
U 1 1 54AEBDD9
P 3100 4450
F 0 "C?" H 3100 4550 40  0000 L CNN
F 1 "27pF" H 3106 4365 40  0000 L CNN
F 2 "~" H 3138 4300 30  0000 C CNN
F 3 "~" H 3100 4450 60  0000 C CNN
	1    3100 4450
	1    0    0    -1  
$EndComp
$Comp
L C C?
U 1 1 54AEBDDF
P 3700 4450
F 0 "C?" H 3700 4550 40  0000 L CNN
F 1 "27pF" H 3706 4365 40  0000 L CNN
F 2 "~" H 3738 4300 30  0000 C CNN
F 3 "~" H 3700 4450 60  0000 C CNN
	1    3700 4450
	1    0    0    -1  
$EndComp
$Comp
L GND #PWR?
U 1 1 54AEBEBE
P 3100 4650
F 0 "#PWR?" H 3100 4650 30  0001 C CNN
F 1 "GND" H 3100 4580 30  0001 C CNN
F 2 "" H 3100 4650 60  0000 C CNN
F 3 "" H 3100 4650 60  0000 C CNN
	1    3100 4650
	1    0    0    -1  
$EndComp
$Comp
L GND #PWR?
U 1 1 54AEBECB
P 3700 4650
F 0 "#PWR?" H 3700 4650 30  0001 C CNN
F 1 "GND" H 3700 4580 30  0001 C CNN
F 2 "" H 3700 4650 60  0000 C CNN
F 3 "" H 3700 4650 60  0000 C CNN
	1    3700 4650
	1    0    0    -1  
$EndComp
$Comp
L +5V #PWR?
U 1 1 54AEC044
P 4500 3800
F 0 "#PWR?" H 4500 3890 20  0001 C CNN
F 1 "+5V" H 4500 3890 30  0000 C CNN
F 2 "" H 4500 3800 60  0000 C CNN
F 3 "" H 4500 3800 60  0000 C CNN
	1    4500 3800
	1    0    0    -1  
$EndComp
NoConn ~ 6650 5350
$Comp
L R R?
U 1 1 54AEC21C
P 6250 5600
F 0 "R?" V 6330 5600 40  0000 C CNN
F 1 "10k" V 6257 5601 40  0000 C CNN
F 2 "~" V 6180 5600 30  0000 C CNN
F 3 "~" H 6250 5600 30  0000 C CNN
	1    6250 5600
	0    -1   -1   0   
$EndComp
$Comp
L LED D?
U 1 1 54AEC22B
P 5900 5850
F 0 "D?" H 5900 5950 50  0000 C CNN
F 1 "LED" H 5900 5750 50  0000 C CNN
F 2 "~" H 5900 5850 60  0000 C CNN
F 3 "~" H 5900 5850 60  0000 C CNN
	1    5900 5850
	0    1    1    0   
$EndComp
$Comp
L R R?
U 1 1 54AEC238
P 6250 6050
F 0 "R?" V 6330 6050 40  0000 C CNN
F 1 "270" V 6257 6051 40  0000 C CNN
F 2 "~" V 6180 6050 30  0000 C CNN
F 3 "~" H 6250 6050 30  0000 C CNN
	1    6250 6050
	0    -1   -1   0   
$EndComp
$Comp
L +3.3V #PWR?
U 1 1 54AEC24F
P 5800 5550
F 0 "#PWR?" H 5800 5510 30  0001 C CNN
F 1 "+3.3V" H 5800 5660 30  0000 C CNN
F 2 "" H 5800 5550 60  0000 C CNN
F 3 "" H 5800 5550 60  0000 C CNN
	1    5800 5550
	1    0    0    -1  
$EndComp
NoConn ~ 6650 3350
NoConn ~ 6650 3450
NoConn ~ 6650 3550
NoConn ~ 6650 3650
NoConn ~ 6650 4150
NoConn ~ 6650 4250
NoConn ~ 6650 5150
NoConn ~ 6650 5050
NoConn ~ 6650 4950
NoConn ~ 6650 4850
NoConn ~ 6650 4650
NoConn ~ 6650 4550
NoConn ~ 6650 4450
NoConn ~ 6650 4350
$Comp
L R R?
U 1 1 54AEC465
P 7050 3750
F 0 "R?" V 7130 3750 40  0000 C CNN
F 1 "10k" V 7057 3751 40  0000 C CNN
F 2 "~" V 6980 3750 30  0000 C CNN
F 3 "~" H 7050 3750 30  0000 C CNN
	1    7050 3750
	0    -1   -1   0   
$EndComp
$Comp
L R R?
U 1 1 54AEC6DE
P 7100 2450
F 0 "R?" V 7180 2450 40  0000 C CNN
F 1 "33" V 7107 2451 40  0000 C CNN
F 2 "~" V 7030 2450 30  0000 C CNN
F 3 "~" H 7100 2450 30  0000 C CNN
	1    7100 2450
	0    -1   -1   0   
$EndComp
NoConn ~ 6650 2850
$Comp
L R R?
U 1 1 54AEC715
P 7100 2550
F 0 "R?" V 7180 2550 40  0000 C CNN
F 1 "33" V 7107 2551 40  0000 C CNN
F 2 "~" V 7030 2550 30  0000 C CNN
F 3 "~" H 7100 2550 30  0000 C CNN
	1    7100 2550
	0    -1   -1   0   
$EndComp
$Comp
L R R?
U 1 1 54AEC71B
P 7100 2650
F 0 "R?" V 7180 2650 40  0000 C CNN
F 1 "33" V 7107 2651 40  0000 C CNN
F 2 "~" V 7030 2650 30  0000 C CNN
F 3 "~" H 7100 2650 30  0000 C CNN
	1    7100 2650
	0    -1   -1   0   
$EndComp
$Comp
L R R?
U 1 1 54AEC721
P 7100 2750
F 0 "R?" V 7180 2750 40  0000 C CNN
F 1 "33" V 7107 2751 40  0000 C CNN
F 2 "~" V 7030 2750 30  0000 C CNN
F 3 "~" H 7100 2750 30  0000 C CNN
	1    7100 2750
	0    -1   -1   0   
$EndComp
$Comp
L R R?
U 1 1 54AEC727
P 7100 3050
F 0 "R?" V 7180 3050 40  0000 C CNN
F 1 "33" V 7107 3051 40  0000 C CNN
F 2 "~" V 7030 3050 30  0000 C CNN
F 3 "~" H 7100 3050 30  0000 C CNN
	1    7100 3050
	0    -1   -1   0   
$EndComp
$Comp
L R R?
U 1 1 54AEC72D
P 7100 3150
F 0 "R?" V 7180 3150 40  0000 C CNN
F 1 "33" V 7107 3151 40  0000 C CNN
F 2 "~" V 7030 3150 30  0000 C CNN
F 3 "~" H 7100 3150 30  0000 C CNN
	1    7100 3150
	0    -1   -1   0   
$EndComp
$Comp
L R R?
U 1 1 54AEC8AD
P 7100 3950
F 0 "R?" V 7180 3950 40  0000 C CNN
F 1 "33" V 7107 3951 40  0000 C CNN
F 2 "~" V 7030 3950 30  0000 C CNN
F 3 "~" H 7100 3950 30  0000 C CNN
	1    7100 3950
	0    -1   -1   0   
$EndComp
$Comp
L R R?
U 1 1 54AEC8B3
P 7100 4050
F 0 "R?" V 7180 4050 40  0000 C CNN
F 1 "33" V 7107 4051 40  0000 C CNN
F 2 "~" V 7030 4050 30  0000 C CNN
F 3 "~" H 7100 4050 30  0000 C CNN
	1    7100 4050
	0    -1   -1   0   
$EndComp
$Comp
L +3.3V #PWR?
U 1 1 54AECF4F
P 6450 1250
F 0 "#PWR?" H 6450 1210 30  0001 C CNN
F 1 "+3.3V" H 6450 1360 30  0000 C CNN
F 2 "" H 6450 1250 60  0000 C CNN
F 3 "" H 6450 1250 60  0000 C CNN
	1    6450 1250
	1    0    0    -1  
$EndComp
$Comp
L C C?
U 1 1 54AECF5E
P 6300 1500
F 0 "C?" H 6300 1600 40  0000 L CNN
F 1 "0.1uF" H 6306 1415 40  0000 L CNN
F 2 "~" H 6338 1350 30  0000 C CNN
F 3 "~" H 6300 1500 60  0000 C CNN
	1    6300 1500
	1    0    0    -1  
$EndComp
$Comp
L C C?
U 1 1 54AECF6B
P 6600 1500
F 0 "C?" H 6600 1600 40  0000 L CNN
F 1 "0.1uF" H 6606 1415 40  0000 L CNN
F 2 "~" H 6638 1350 30  0000 C CNN
F 3 "~" H 6600 1500 60  0000 C CNN
	1    6600 1500
	1    0    0    -1  
$EndComp
$Comp
L GND #PWR?
U 1 1 54AED101
P 6450 1750
F 0 "#PWR?" H 6450 1750 30  0001 C CNN
F 1 "GND" H 6450 1680 30  0001 C CNN
F 2 "" H 6450 1750 60  0000 C CNN
F 3 "" H 6450 1750 60  0000 C CNN
	1    6450 1750
	1    0    0    -1  
$EndComp
Text Label 7400 2450 0    60   ~ 0
FT_SK
Text Label 7400 2550 0    60   ~ 0
FT_DO
Text Label 7400 2650 0    60   ~ 0
FT_DI
Text Label 7400 2750 0    60   ~ 0
FT_CS
Text Label 7400 3050 0    60   ~ 0
nDGBEN
Text Label 7400 3150 0    60   ~ 0
DBGMOD
Text HLabel 10250 4200 2    60   Output ~ 0
CC_GPIO_02
Text HLabel 10250 4300 2    60   Input ~ 0
CC_GPIO_01
$Comp
L 74LVC1T45D U?
U 1 1 54AEE7B6
P 9250 5750
F 0 "U?" H 9250 5500 60  0000 C CNN
F 1 "74LVC1T45D" H 9250 5900 60  0000 C CNN
F 2 "" H 9250 5750 60  0000 C CNN
F 3 "" H 9250 5750 60  0000 C CNN
	1    9250 5750
	-1   0    0    1   
$EndComp
$Comp
L 74LVC1T45D U?
U 1 1 54AEE7CD
P 9250 6200
F 0 "U?" H 9250 5950 60  0000 C CNN
F 1 "74LVC1T45D" H 9250 6350 60  0000 C CNN
F 2 "" H 9250 6200 60  0000 C CNN
F 3 "" H 9250 6200 60  0000 C CNN
	1    9250 6200
	-1   0    0    1   
$EndComp
Text Notes 8950 6500 0    60   ~ 0
UART MUXING
$Comp
L +3.3V #PWR?
U 1 1 54AEE7D5
P 9950 5450
F 0 "#PWR?" H 9950 5410 30  0001 C CNN
F 1 "+3.3V" H 9950 5560 30  0000 C CNN
F 2 "" H 9950 5450 60  0000 C CNN
F 3 "" H 9950 5450 60  0000 C CNN
	1    9950 5450
	1    0    0    -1  
$EndComp
$Comp
L GND #PWR?
U 1 1 54AEE89B
P 9850 5650
F 0 "#PWR?" H 9850 5650 30  0001 C CNN
F 1 "GND" H 9850 5580 30  0001 C CNN
F 2 "" H 9850 5650 60  0000 C CNN
F 3 "" H 9850 5650 60  0000 C CNN
	1    9850 5650
	1    0    0    -1  
$EndComp
$Comp
L GND #PWR?
U 1 1 54AEE961
P 9900 6200
F 0 "#PWR?" H 9900 6200 30  0001 C CNN
F 1 "GND" H 9900 6130 30  0001 C CNN
F 2 "" H 9900 6200 60  0000 C CNN
F 3 "" H 9900 6200 60  0000 C CNN
	1    9900 6200
	1    0    0    -1  
$EndComp
Text Label 7400 3950 0    60   ~ 0
FTDI_TX
Text Label 7400 4050 0    60   ~ 0
FTDI_RX
$Comp
L R R?
U 1 1 54AEEEBC
P 8350 5600
F 0 "R?" V 8430 5600 40  0000 C CNN
F 1 "33" V 8357 5601 40  0000 C CNN
F 2 "~" V 8280 5600 30  0000 C CNN
F 3 "~" H 8350 5600 30  0000 C CNN
	1    8350 5600
	0    -1   -1   0   
$EndComp
$Comp
L R R?
U 1 1 54AEF1F0
P 10100 4950
F 0 "R?" V 10180 4950 40  0000 C CNN
F 1 "33" V 10107 4951 40  0000 C CNN
F 2 "~" V 10030 4950 30  0000 C CNN
F 3 "~" H 10100 4950 30  0000 C CNN
	1    10100 4950
	1    0    0    -1  
$EndComp
$Comp
L C C?
U 1 1 54AEF774
P 8450 5900
F 0 "C?" H 8450 6000 40  0000 L CNN
F 1 "0.1uF" H 8456 5815 40  0000 L CNN
F 2 "~" H 8488 5750 30  0000 C CNN
F 3 "~" H 8450 5900 60  0000 C CNN
	1    8450 5900
	1    0    0    -1  
$EndComp
$Comp
L C C?
U 1 1 54AEF781
P 8550 6450
F 0 "C?" H 8550 6550 40  0000 L CNN
F 1 "0.1uF" H 8556 6365 40  0000 L CNN
F 2 "~" H 8588 6300 30  0000 C CNN
F 3 "~" H 8550 6450 60  0000 C CNN
	1    8550 6450
	1    0    0    -1  
$EndComp
$Comp
L GND #PWR?
U 1 1 54AEF789
P 8450 6100
F 0 "#PWR?" H 8450 6100 30  0001 C CNN
F 1 "GND" H 8450 6030 30  0001 C CNN
F 2 "" H 8450 6100 60  0000 C CNN
F 3 "" H 8450 6100 60  0000 C CNN
	1    8450 6100
	1    0    0    -1  
$EndComp
$Comp
L GND #PWR?
U 1 1 54AEF796
P 8550 6650
F 0 "#PWR?" H 8550 6650 30  0001 C CNN
F 1 "GND" H 8550 6580 30  0001 C CNN
F 2 "" H 8550 6650 60  0000 C CNN
F 3 "" H 8550 6650 60  0000 C CNN
	1    8550 6650
	1    0    0    -1  
$EndComp
$Comp
L +3.3V #PWR?
U 1 1 54AEC474
P 7350 3650
F 0 "#PWR?" H 7350 3610 30  0001 C CNN
F 1 "+3.3V" H 7350 3760 30  0000 C CNN
F 2 "" H 7350 3650 60  0000 C CNN
F 3 "" H 7350 3650 60  0000 C CNN
	1    7350 3650
	1    0    0    -1  
$EndComp
$Sheet
S 8300 2450 1400 1150
U 54AF0F87
F0 "ftdi_buffers" 50
F1 "ftdi_buffers.sch" 50
F2 "FT_SK" I L 8300 2600 60 
F3 "FT_DO" O L 8300 2700 60 
F4 "FT_DI" I L 8300 2800 60 
F5 "FT_CS" I L 8300 2900 60 
F6 "nDBG_RST" I L 8300 3050 60 
F7 "nDBGEN" I L 8300 3150 60 
F8 "DBGMOD" I L 8300 3250 60 
F9 "JTAG_TCK" O R 9700 2700 60 
F10 "JTAG_TDI" O R 9700 2800 60 
F11 "JTAG_TMS" O R 9700 2900 60 
F12 "JTAG_TDO" I R 9700 3000 60 
F13 "nSRST" I R 9700 3300 60 
$EndSheet
Text HLabel 10400 3300 2    60   Output ~ 0
FT_nSRST
Wire Wire Line
	1250 3250 600  3250
Wire Wire Line
	600  3250 600  4500
Connection ~ 600  3700
Connection ~ 600  3800
Connection ~ 600  3900
Wire Wire Line
	600  4450 1250 4450
Connection ~ 600  4000
Connection ~ 600  4450
Wire Wire Line
	1850 3650 1850 3400
Wire Wire Line
	1850 3400 1900 3400
Wire Wire Line
	2800 3400 2800 3200
Wire Wire Line
	1850 4300 1850 4050
Wire Wire Line
	2450 3850 2450 3750
Wire Wire Line
	1850 3750 2800 3750
Wire Wire Line
	1850 3850 2300 3850
Connection ~ 2450 3750
Wire Wire Line
	2300 3850 2300 3900
Wire Wire Line
	2300 3900 2800 3900
Connection ~ 2250 3850
Wire Wire Line
	4950 3300 4000 3300
Wire Wire Line
	4000 3300 4000 3750
Wire Wire Line
	4000 3750 3300 3750
Wire Wire Line
	3300 3900 4050 3900
Wire Wire Line
	4050 3900 4050 3450
Wire Wire Line
	4050 3450 4950 3450
Wire Wire Line
	4950 3600 4750 3600
Wire Wire Line
	4250 3600 4050 3600
Connection ~ 4050 3600
Wire Wire Line
	4950 3150 3850 3150
Wire Wire Line
	4950 4700 4950 5400
Connection ~ 4950 5000
Connection ~ 4950 5100
Connection ~ 4950 5200
Connection ~ 4950 5300
Connection ~ 4950 4900
Wire Wire Line
	4950 2450 4950 2550
Wire Wire Line
	4950 2450 4850 2450
Wire Wire Line
	4850 2450 4850 2200
Wire Wire Line
	4250 2650 4350 2650
Wire Wire Line
	4350 2650 4350 2750
Wire Wire Line
	4350 2750 4700 2750
Wire Wire Line
	4700 2750 4700 2850
Wire Wire Line
	4700 2850 4950 2850
Connection ~ 4500 2750
Wire Wire Line
	4950 2650 4950 2750
Wire Wire Line
	4500 2250 4650 2250
Wire Wire Line
	4650 2250 4650 2650
Wire Wire Line
	4650 2650 4950 2650
Wire Wire Line
	4500 2250 4500 2200
Wire Wire Line
	2550 5100 2700 5100
Wire Wire Line
	2700 5100 2700 5200
Wire Wire Line
	2700 5200 2850 5200
Wire Wire Line
	2550 5500 2850 5500
Wire Wire Line
	4950 4200 4650 4200
Wire Wire Line
	4650 4200 4650 5300
Wire Wire Line
	4650 5300 3950 5300
Wire Wire Line
	4950 4400 4550 4400
Wire Wire Line
	4550 4400 4550 5200
Wire Wire Line
	4550 5200 3950 5200
Wire Wire Line
	4950 4550 4750 4550
Wire Wire Line
	4750 4550 4750 5400
Wire Wire Line
	4750 5400 3950 5400
Wire Wire Line
	4050 5500 3950 5500
Wire Wire Line
	4550 5500 4600 5500
Wire Wire Line
	4600 5500 4600 5400
Connection ~ 4600 5400
Wire Wire Line
	4450 4950 4450 5200
Connection ~ 4450 5200
Wire Wire Line
	4250 4950 4250 5300
Connection ~ 4250 5300
Wire Wire Line
	4050 4950 4050 5400
Connection ~ 4050 5400
Wire Wire Line
	4050 4450 4050 4400
Wire Wire Line
	4050 4400 4450 4400
Wire Wire Line
	4250 4300 4250 4450
Wire Wire Line
	4450 4400 4450 4450
Connection ~ 4250 4400
Wire Wire Line
	2550 5100 2550 5050
Wire Wire Line
	2550 5500 2550 5550
Wire Wire Line
	3100 4250 3100 4000
Wire Wire Line
	3100 4000 4450 4000
Wire Wire Line
	4450 4000 4450 3900
Wire Wire Line
	4450 3900 4950 3900
Wire Wire Line
	3700 4250 3700 4050
Wire Wire Line
	3700 4050 4950 4050
Wire Wire Line
	4500 3800 4750 3800
Wire Wire Line
	4750 3800 4750 3750
Wire Wire Line
	4750 3750 4950 3750
Wire Wire Line
	6650 5250 6700 5250
Wire Wire Line
	6700 5250 6700 5600
Wire Wire Line
	6700 5600 6500 5600
Wire Wire Line
	6000 5600 5800 5600
Wire Wire Line
	5800 5600 5800 5550
Wire Wire Line
	5900 5600 5900 5650
Connection ~ 5900 5600
Wire Wire Line
	5900 6050 6000 6050
Wire Wire Line
	6800 3750 6650 3750
Wire Wire Line
	7300 3750 7350 3750
Wire Wire Line
	7350 3750 7350 3650
Wire Wire Line
	6850 3950 6650 3950
Wire Wire Line
	6650 4050 6850 4050
Wire Wire Line
	6850 3050 6650 3050
Wire Wire Line
	6650 3150 6850 3150
Wire Wire Line
	6650 2750 6850 2750
Wire Wire Line
	6650 2650 6850 2650
Wire Wire Line
	6850 2550 6650 2550
Wire Wire Line
	6650 2450 6850 2450
Wire Wire Line
	6300 1300 6600 1300
Wire Wire Line
	6450 1250 6450 1300
Connection ~ 6450 1300
Wire Wire Line
	6300 1700 6600 1700
Wire Wire Line
	6450 1750 6450 1700
Connection ~ 6450 1700
Wire Wire Line
	9800 5700 9950 5700
Wire Wire Line
	9950 5700 9950 5450
Wire Wire Line
	9800 5600 9850 5600
Wire Wire Line
	9850 5600 9850 5650
Wire Wire Line
	9800 6150 9900 6150
Wire Wire Line
	9900 6050 9900 6200
Wire Wire Line
	9800 6050 9900 6050
Connection ~ 9900 6150
Wire Wire Line
	7350 3950 7800 3950
Wire Wire Line
	7800 3950 7800 6050
Wire Wire Line
	7350 4050 7750 4050
Wire Wire Line
	7800 6050 8700 6050
Wire Wire Line
	8100 5600 7750 5600
Wire Wire Line
	7750 5600 7750 4050
Wire Wire Line
	8600 5600 8700 5600
Wire Wire Line
	10250 4300 10200 4300
Wire Wire Line
	10200 4300 10200 5800
Wire Wire Line
	10200 5800 9800 5800
Wire Wire Line
	10250 4200 10100 4200
Wire Wire Line
	10100 4200 10100 4700
Wire Wire Line
	10100 5200 10100 6250
Wire Wire Line
	10100 6250 9800 6250
Wire Wire Line
	8700 5700 8700 5800
Wire Wire Line
	8450 5700 8700 5700
Wire Wire Line
	8700 6250 8700 6150
Wire Wire Line
	8550 6250 8700 6250
Wire Wire Line
	9700 2700 10400 2700
Wire Wire Line
	9700 2800 10400 2800
Wire Wire Line
	9700 2900 10400 2900
Wire Wire Line
	9700 3000 10400 3000
Wire Wire Line
	7350 2450 8200 2450
Wire Wire Line
	7350 2550 8100 2550
Wire Wire Line
	7350 2650 8000 2650
Wire Wire Line
	7350 2750 7900 2750
Wire Wire Line
	7350 3050 7700 3050
Wire Wire Line
	7350 3150 7600 3150
Wire Wire Line
	8200 2450 8200 2600
Wire Wire Line
	8200 2600 8300 2600
Wire Wire Line
	8100 2550 8100 2700
Wire Wire Line
	8100 2700 8300 2700
Wire Wire Line
	8000 2650 8000 2800
Wire Wire Line
	8000 2800 8300 2800
Wire Wire Line
	7900 2750 7900 2900
Wire Wire Line
	7900 2900 8300 2900
Wire Wire Line
	6650 2950 7800 2950
Wire Wire Line
	7800 2950 7800 3050
Wire Wire Line
	7800 3050 8300 3050
Wire Wire Line
	7700 3050 7700 6050
Wire Wire Line
	7700 3150 8300 3150
Wire Wire Line
	7600 3150 7600 3250
Wire Wire Line
	7600 3250 8300 3250
Wire Wire Line
	10400 3300 9700 3300
Wire Wire Line
	7700 6050 6500 6050
Connection ~ 7700 3150
$EndSCHEMATC
