EESchema Schematic File Version 2
LIBS:power
LIBS:device
LIBS:transistors
LIBS:conn
LIBS:linear
LIBS:regul
LIBS:74xx
LIBS:cmos4000
LIBS:adc-dac
LIBS:memory
LIBS:xilinx
LIBS:special
LIBS:microcontrollers
LIBS:dsp
LIBS:microchip
LIBS:analog_switches
LIBS:motorola
LIBS:texas
LIBS:intel
LIBS:audio
LIBS:interface
LIBS:digital-audio
LIBS:philips
LIBS:display
LIBS:cypress
LIBS:siliconi
LIBS:opto
LIBS:atmel
LIBS:contrib
LIBS:valves
LIBS:quadcopter_custom
LIBS:prototype_0-cache
EELAYER 25 0
EELAYER END
$Descr A4 11693 8268
encoding utf-8
Sheet 1 5
Title ""
Date "8 jan 2015"
Rev ""
Comp ""
Comment1 ""
Comment2 ""
Comment3 ""
Comment4 ""
$EndDescr
$Comp
L CC3200 IC?
U 1 1 54AE4E7C
P 4100 4050
F 0 "IC?" H 4150 4300 60  0000 C CNN
F 1 "CC3200" H 4200 4800 60  0000 C CNN
F 2 "~" H 3350 4000 60  0000 C CNN
F 3 "~" H 3350 4000 60  0000 C CNN
	1    4100 4050
	1    0    0    -1  
$EndComp
$Comp
L INDUCTOR L?
U 1 1 54AE4EF5
P 1950 2650
F 0 "L?" V 1900 2650 40  0000 C CNN
F 1 "2.2uF" V 2050 2650 40  0000 C CNN
F 2 "~" H 1950 2650 60  0000 C CNN
F 3 "~" H 1950 2650 60  0000 C CNN
	1    1950 2650
	0    -1   -1   0   
$EndComp
$Comp
L C C?
U 1 1 54AE4F04
P 1300 2850
F 0 "C?" H 1300 2950 40  0000 L CNN
F 1 "10uF" H 1306 2765 40  0000 L CNN
F 2 "~" H 1338 2700 30  0000 C CNN
F 3 "~" H 1300 2850 60  0000 C CNN
	1    1300 2850
	1    0    0    -1  
$EndComp
$Comp
L C C?
U 1 1 54AE4F11
P 1750 2950
F 0 "C?" H 1750 3050 40  0000 L CNN
F 1 "0.1uF" H 1756 2865 40  0000 L CNN
F 2 "~" H 1788 2800 30  0000 C CNN
F 3 "~" H 1750 2950 60  0000 C CNN
	1    1750 2950
	1    0    0    -1  
$EndComp
$Comp
L C C?
U 1 1 54AE4F1D
P 2200 3150
F 0 "C?" H 2200 3250 40  0000 L CNN
F 1 "0.1uF" H 2206 3065 40  0000 L CNN
F 2 "~" H 2238 3000 30  0000 C CNN
F 3 "~" H 2200 3150 60  0000 C CNN
	1    2200 3150
	1    0    0    -1  
$EndComp
$Comp
L C C?
U 1 1 54AE4F23
P 2000 3250
F 0 "C?" H 2000 3350 40  0000 L CNN
F 1 "0.1uF" H 2006 3165 40  0000 L CNN
F 2 "~" H 2038 3100 30  0000 C CNN
F 3 "~" H 2000 3250 60  0000 C CNN
	1    2000 3250
	1    0    0    -1  
$EndComp
$Comp
L GND #PWR?
U 1 1 54AE4FD3
P 1300 3050
F 0 "#PWR?" H 1300 3050 30  0001 C CNN
F 1 "GND" H 1300 2980 30  0001 C CNN
F 2 "" H 1300 3050 60  0000 C CNN
F 3 "" H 1300 3050 60  0000 C CNN
	1    1300 3050
	1    0    0    -1  
$EndComp
$Comp
L GND #PWR?
U 1 1 54AE4FE0
P 1750 3150
F 0 "#PWR?" H 1750 3150 30  0001 C CNN
F 1 "GND" H 1750 3080 30  0001 C CNN
F 2 "" H 1750 3150 60  0000 C CNN
F 3 "" H 1750 3150 60  0000 C CNN
	1    1750 3150
	1    0    0    -1  
$EndComp
$Comp
L GND #PWR?
U 1 1 54AE4FE6
P 2000 3450
F 0 "#PWR?" H 2000 3450 30  0001 C CNN
F 1 "GND" H 2000 3380 30  0001 C CNN
F 2 "" H 2000 3450 60  0000 C CNN
F 3 "" H 2000 3450 60  0000 C CNN
	1    2000 3450
	1    0    0    -1  
$EndComp
$Comp
L GND #PWR?
U 1 1 54AE4FEC
P 2200 3350
F 0 "#PWR?" H 2200 3350 30  0001 C CNN
F 1 "GND" H 2200 3280 30  0001 C CNN
F 2 "" H 2200 3350 60  0000 C CNN
F 3 "" H 2200 3350 60  0000 C CNN
	1    2200 3350
	1    0    0    -1  
$EndComp
$Comp
L INDUCTOR L?
U 1 1 54AE5065
P 1550 3350
F 0 "L?" V 1500 3350 40  0000 C CNN
F 1 "1uH" V 1650 3350 40  0000 C CNN
F 2 "~" H 1550 3350 60  0000 C CNN
F 3 "~" H 1550 3350 60  0000 C CNN
	1    1550 3350
	0    -1   -1   0   
$EndComp
$Comp
L C C?
U 1 1 54AE506B
P 1550 3800
F 0 "C?" H 1550 3900 40  0000 L CNN
F 1 "22uF" H 1556 3715 40  0000 L CNN
F 2 "~" H 1588 3650 30  0000 C CNN
F 3 "~" H 1550 3800 60  0000 C CNN
	1    1550 3800
	1    0    0    -1  
$EndComp
$Comp
L C C?
U 1 1 54AE5071
P 1850 3800
F 0 "C?" H 1850 3900 40  0000 L CNN
F 1 "22uF" H 1856 3715 40  0000 L CNN
F 2 "~" H 1888 3650 30  0000 C CNN
F 3 "~" H 1850 3800 60  0000 C CNN
	1    1850 3800
	1    0    0    -1  
$EndComp
$Comp
L C C?
U 1 1 54AE5077
P 2150 3800
F 0 "C?" H 2150 3900 40  0000 L CNN
F 1 "0.1uF" H 2156 3715 40  0000 L CNN
F 2 "~" H 2188 3650 30  0000 C CNN
F 3 "~" H 2150 3800 60  0000 C CNN
	1    2150 3800
	1    0    0    -1  
$EndComp
$Comp
L GND #PWR?
U 1 1 54AE5179
P 1550 4000
F 0 "#PWR?" H 1550 4000 30  0001 C CNN
F 1 "GND" H 1550 3930 30  0001 C CNN
F 2 "" H 1550 4000 60  0000 C CNN
F 3 "" H 1550 4000 60  0000 C CNN
	1    1550 4000
	1    0    0    -1  
$EndComp
$Comp
L GND #PWR?
U 1 1 54AE517F
P 1850 4000
F 0 "#PWR?" H 1850 4000 30  0001 C CNN
F 1 "GND" H 1850 3930 30  0001 C CNN
F 2 "" H 1850 4000 60  0000 C CNN
F 3 "" H 1850 4000 60  0000 C CNN
	1    1850 4000
	1    0    0    -1  
$EndComp
$Comp
L GND #PWR?
U 1 1 54AE5185
P 2150 4000
F 0 "#PWR?" H 2150 4000 30  0001 C CNN
F 1 "GND" H 2150 3930 30  0001 C CNN
F 2 "" H 2150 4000 60  0000 C CNN
F 3 "" H 2150 4000 60  0000 C CNN
	1    2150 4000
	1    0    0    -1  
$EndComp
NoConn ~ 2550 4350
NoConn ~ 2550 4450
$Comp
L INDUCTOR L?
U 1 1 54AE5271
P 2000 4150
F 0 "L?" V 1950 4150 40  0000 C CNN
F 1 "2.2uH" V 2100 4150 40  0000 C CNN
F 2 "~" H 2000 4150 60  0000 C CNN
F 3 "~" H 2000 4150 60  0000 C CNN
	1    2000 4150
	0    -1   -1   0   
$EndComp
$Comp
L C C?
U 1 1 54AE529B
P 1650 4450
F 0 "C?" H 1650 4550 40  0000 L CNN
F 1 "10uF" H 1656 4365 40  0000 L CNN
F 2 "~" H 1688 4300 30  0000 C CNN
F 3 "~" H 1650 4450 60  0000 C CNN
	1    1650 4450
	1    0    0    -1  
$EndComp
$Comp
L C C?
U 1 1 54AE52A1
P 1900 4450
F 0 "C?" H 1900 4550 40  0000 L CNN
F 1 "0.1uF" H 1906 4365 40  0000 L CNN
F 2 "~" H 1938 4300 30  0000 C CNN
F 3 "~" H 1900 4450 60  0000 C CNN
	1    1900 4450
	1    0    0    -1  
$EndComp
$Comp
L C C?
U 1 1 54AE52A7
P 2150 4450
F 0 "C?" H 2150 4550 40  0000 L CNN
F 1 "0.1uF" H 2156 4365 40  0000 L CNN
F 2 "~" H 2188 4300 30  0000 C CNN
F 3 "~" H 2150 4450 60  0000 C CNN
	1    2150 4450
	1    0    0    -1  
$EndComp
$Comp
L GND #PWR?
U 1 1 54AE52AD
P 1650 4650
F 0 "#PWR?" H 1650 4650 30  0001 C CNN
F 1 "GND" H 1650 4580 30  0001 C CNN
F 2 "" H 1650 4650 60  0000 C CNN
F 3 "" H 1650 4650 60  0000 C CNN
	1    1650 4650
	1    0    0    -1  
$EndComp
$Comp
L GND #PWR?
U 1 1 54AE52B3
P 1900 4650
F 0 "#PWR?" H 1900 4650 30  0001 C CNN
F 1 "GND" H 1900 4580 30  0001 C CNN
F 2 "" H 1900 4650 60  0000 C CNN
F 3 "" H 1900 4650 60  0000 C CNN
	1    1900 4650
	1    0    0    -1  
$EndComp
$Comp
L GND #PWR?
U 1 1 54AE52B9
P 2150 4650
F 0 "#PWR?" H 2150 4650 30  0001 C CNN
F 1 "GND" H 2150 4580 30  0001 C CNN
F 2 "" H 2150 4650 60  0000 C CNN
F 3 "" H 2150 4650 60  0000 C CNN
	1    2150 4650
	1    0    0    -1  
$EndComp
$Comp
L R R?
U 1 1 54AE5452
P 1150 4450
F 0 "R?" V 1230 4450 40  0000 C CNN
F 1 "0.1R" V 1157 4451 40  0000 C CNN
F 2 "~" V 1080 4450 30  0000 C CNN
F 3 "~" H 1150 4450 30  0000 C CNN
	1    1150 4450
	1    0    0    -1  
$EndComp
$Comp
L C C?
U 1 1 54AE545F
P 1150 5000
F 0 "C?" H 1150 5100 40  0000 L CNN
F 1 "10uF" H 1156 4915 40  0000 L CNN
F 2 "~" H 1188 4850 30  0000 C CNN
F 3 "~" H 1150 5000 60  0000 C CNN
	1    1150 5000
	1    0    0    -1  
$EndComp
$Comp
L GND #PWR?
U 1 1 54AE5465
P 1150 5200
F 0 "#PWR?" H 1150 5200 30  0001 C CNN
F 1 "GND" H 1150 5130 30  0001 C CNN
F 2 "" H 1150 5200 60  0000 C CNN
F 3 "" H 1150 5200 60  0000 C CNN
	1    1150 5200
	1    0    0    -1  
$EndComp
$Comp
L +3.3V #PWR?
U 1 1 54AE54EC
P 1150 4150
F 0 "#PWR?" H 1150 4110 30  0001 C CNN
F 1 "+3.3V" H 1150 4260 30  0000 C CNN
F 2 "" H 1150 4150 60  0000 C CNN
F 3 "" H 1150 4150 60  0000 C CNN
	1    1150 4150
	1    0    0    -1  
$EndComp
$Comp
L C C?
U 1 1 54AE55FC
P 1800 5000
F 0 "C?" H 1800 5100 40  0000 L CNN
F 1 "0.1uF" H 1806 4915 40  0000 L CNN
F 2 "~" H 1838 4850 30  0000 C CNN
F 3 "~" H 1800 5000 60  0000 C CNN
	1    1800 5000
	1    0    0    -1  
$EndComp
$Comp
L C C?
U 1 1 54AE5602
P 2000 5100
F 0 "C?" H 2000 5200 40  0000 L CNN
F 1 "0.1uF" H 2006 5015 40  0000 L CNN
F 2 "~" H 2038 4950 30  0000 C CNN
F 3 "~" H 2000 5100 60  0000 C CNN
	1    2000 5100
	1    0    0    -1  
$EndComp
$Comp
L GND #PWR?
U 1 1 54AE5608
P 1800 5200
F 0 "#PWR?" H 1800 5200 30  0001 C CNN
F 1 "GND" H 1800 5130 30  0001 C CNN
F 2 "" H 1800 5200 60  0000 C CNN
F 3 "" H 1800 5200 60  0000 C CNN
	1    1800 5200
	1    0    0    -1  
$EndComp
$Comp
L GND #PWR?
U 1 1 54AE560E
P 2000 5300
F 0 "#PWR?" H 2000 5300 30  0001 C CNN
F 1 "GND" H 2000 5230 30  0001 C CNN
F 2 "" H 2000 5300 60  0000 C CNN
F 3 "" H 2000 5300 60  0000 C CNN
	1    2000 5300
	1    0    0    -1  
$EndComp
$Comp
L CRYSTAL X?
U 1 1 54AE5842
P 1850 5700
F 0 "X?" H 1850 5850 60  0000 C CNN
F 1 "32.768kHz" H 1850 5550 60  0000 C CNN
F 2 "~" H 1850 5700 60  0000 C CNN
F 3 "~" H 1850 5700 60  0000 C CNN
	1    1850 5700
	1    0    0    -1  
$EndComp
$Comp
L C C?
U 1 1 54AE584F
P 1550 5900
F 0 "C?" H 1550 6000 40  0000 L CNN
F 1 "10pF" H 1556 5815 40  0000 L CNN
F 2 "~" H 1588 5750 30  0000 C CNN
F 3 "~" H 1550 5900 60  0000 C CNN
	1    1550 5900
	1    0    0    -1  
$EndComp
$Comp
L C C?
U 1 1 54AE5855
P 2150 5900
F 0 "C?" H 2150 6000 40  0000 L CNN
F 1 "10pF" H 2156 5815 40  0000 L CNN
F 2 "~" H 2188 5750 30  0000 C CNN
F 3 "~" H 2150 5900 60  0000 C CNN
	1    2150 5900
	1    0    0    -1  
$EndComp
$Comp
L GND #PWR?
U 1 1 54AE585B
P 1550 6100
F 0 "#PWR?" H 1550 6100 30  0001 C CNN
F 1 "GND" H 1550 6030 30  0001 C CNN
F 2 "" H 1550 6100 60  0000 C CNN
F 3 "" H 1550 6100 60  0000 C CNN
	1    1550 6100
	1    0    0    -1  
$EndComp
$Comp
L GND #PWR?
U 1 1 54AE5861
P 2150 6100
F 0 "#PWR?" H 2150 6100 30  0001 C CNN
F 1 "GND" H 2150 6030 30  0001 C CNN
F 2 "" H 2150 6100 60  0000 C CNN
F 3 "" H 2150 6100 60  0000 C CNN
	1    2150 6100
	1    0    0    -1  
$EndComp
Wire Wire Line
	2000 3050 2550 3050
Wire Wire Line
	2000 2950 2550 2950
Wire Wire Line
	2000 2750 2000 3050
Connection ~ 2200 2950
Wire Wire Line
	2550 2650 2250 2650
Wire Wire Line
	1650 2650 1650 2750
Wire Wire Line
	1650 2750 2550 2750
Connection ~ 1750 2750
Wire Wire Line
	1300 2650 1650 2650
Connection ~ 2000 2950
Connection ~ 2000 2750
Wire Wire Line
	1850 3350 2100 3350
Wire Wire Line
	2100 3350 2100 3300
Wire Wire Line
	2100 3300 2300 3300
Wire Wire Line
	2300 3300 2300 3350
Wire Wire Line
	2300 3350 2550 3350
Wire Wire Line
	1250 3350 1250 3450
Wire Wire Line
	1250 3450 1850 3450
Wire Wire Line
	1850 3450 1850 3500
Wire Wire Line
	1850 3500 2100 3500
Wire Wire Line
	2100 3500 2100 3450
Wire Wire Line
	2100 3450 2550 3450
Wire Wire Line
	1550 3600 2550 3600
Connection ~ 1850 3600
Wire Wire Line
	2550 3550 2550 3650
Connection ~ 2150 3600
Connection ~ 2550 3600
Wire Wire Line
	2300 4150 2350 4150
Wire Wire Line
	2350 4150 2350 3900
Wire Wire Line
	2350 3900 2550 3900
Wire Wire Line
	1700 4150 1650 4150
Wire Wire Line
	1650 4150 1650 4250
Wire Wire Line
	1650 4250 2550 4250
Connection ~ 1900 4250
Wire Wire Line
	2550 4250 2550 4000
Connection ~ 2150 4250
Connection ~ 2550 4100
Wire Wire Line
	1150 4150 1150 4200
Wire Wire Line
	1150 4700 1150 4800
Wire Wire Line
	1150 4750 2450 4750
Wire Wire Line
	2450 4750 2450 4550
Wire Wire Line
	2450 4550 2550 4550
Connection ~ 1150 4750
Wire Wire Line
	1800 4800 2550 4800
Wire Wire Line
	2550 4900 2000 4900
Wire Wire Line
	2150 5700 2550 5700
Wire Wire Line
	2550 5700 2550 5500
Wire Wire Line
	1550 5700 1550 5450
Wire Wire Line
	1550 5450 2450 5450
Wire Wire Line
	2450 5450 2450 5400
Wire Wire Line
	2450 5400 2550 5400
$Comp
L C C?
U 1 1 54AE5A2E
P 3500 1800
F 0 "C?" H 3500 1900 40  0000 L CNN
F 1 "4.7uF" H 3506 1715 40  0000 L CNN
F 2 "~" H 3538 1650 30  0000 C CNN
F 3 "~" H 3500 1800 60  0000 C CNN
	1    3500 1800
	1    0    0    -1  
$EndComp
$Comp
L C C?
U 1 1 54AE5A34
P 3700 1800
F 0 "C?" H 3700 1900 40  0000 L CNN
F 1 "4.7uF" H 3706 1715 40  0000 L CNN
F 2 "~" H 3738 1650 30  0000 C CNN
F 3 "~" H 3700 1800 60  0000 C CNN
	1    3700 1800
	1    0    0    -1  
$EndComp
$Comp
L C C?
U 1 1 54AE5A44
P 3900 1800
F 0 "C?" H 3900 1900 40  0000 L CNN
F 1 "4.7uF" H 3906 1715 40  0000 L CNN
F 2 "~" H 3938 1650 30  0000 C CNN
F 3 "~" H 3900 1800 60  0000 C CNN
	1    3900 1800
	1    0    0    -1  
$EndComp
$Comp
L C C?
U 1 1 54AE5A4A
P 4100 1800
F 0 "C?" H 4100 1900 40  0000 L CNN
F 1 "0.1uF" H 4106 1715 40  0000 L CNN
F 2 "~" H 4138 1650 30  0000 C CNN
F 3 "~" H 4100 1800 60  0000 C CNN
	1    4100 1800
	1    0    0    -1  
$EndComp
$Comp
L C C?
U 1 1 54AE5A50
P 4300 1800
F 0 "C?" H 4300 1900 40  0000 L CNN
F 1 "0.1uF" H 4306 1715 40  0000 L CNN
F 2 "~" H 4338 1650 30  0000 C CNN
F 3 "~" H 4300 1800 60  0000 C CNN
	1    4300 1800
	1    0    0    -1  
$EndComp
$Comp
L GND #PWR?
U 1 1 54AE5A68
P 3500 2000
F 0 "#PWR?" H 3500 2000 30  0001 C CNN
F 1 "GND" H 3500 1930 30  0001 C CNN
F 2 "" H 3500 2000 60  0000 C CNN
F 3 "" H 3500 2000 60  0000 C CNN
	1    3500 2000
	1    0    0    -1  
$EndComp
$Comp
L GND #PWR?
U 1 1 54AE5A75
P 3700 2000
F 0 "#PWR?" H 3700 2000 30  0001 C CNN
F 1 "GND" H 3700 1930 30  0001 C CNN
F 2 "" H 3700 2000 60  0000 C CNN
F 3 "" H 3700 2000 60  0000 C CNN
	1    3700 2000
	1    0    0    -1  
$EndComp
$Comp
L GND #PWR?
U 1 1 54AE5A7B
P 3900 2000
F 0 "#PWR?" H 3900 2000 30  0001 C CNN
F 1 "GND" H 3900 1930 30  0001 C CNN
F 2 "" H 3900 2000 60  0000 C CNN
F 3 "" H 3900 2000 60  0000 C CNN
	1    3900 2000
	1    0    0    -1  
$EndComp
$Comp
L GND #PWR?
U 1 1 54AE5A81
P 4100 2000
F 0 "#PWR?" H 4100 2000 30  0001 C CNN
F 1 "GND" H 4100 1930 30  0001 C CNN
F 2 "" H 4100 2000 60  0000 C CNN
F 3 "" H 4100 2000 60  0000 C CNN
	1    4100 2000
	1    0    0    -1  
$EndComp
$Comp
L GND #PWR?
U 1 1 54AE5A87
P 4300 2000
F 0 "#PWR?" H 4300 2000 30  0001 C CNN
F 1 "GND" H 4300 1930 30  0001 C CNN
F 2 "" H 4300 2000 60  0000 C CNN
F 3 "" H 4300 2000 60  0000 C CNN
	1    4300 2000
	1    0    0    -1  
$EndComp
Wire Wire Line
	3500 1600 3600 1600
Wire Wire Line
	3600 1550 3600 1950
Wire Wire Line
	3800 1550 3800 1950
Wire Wire Line
	3800 1600 3700 1600
Wire Wire Line
	3900 1600 4000 1600
Wire Wire Line
	4000 1450 4000 1950
Wire Wire Line
	4200 1550 4200 1950
Wire Wire Line
	4200 1600 4100 1600
Wire Wire Line
	4300 1600 4400 1600
Wire Wire Line
	4400 1550 4400 1950
Wire Wire Line
	3600 1550 4400 1550
Connection ~ 3800 1600
Connection ~ 3600 1600
Connection ~ 4400 1600
Connection ~ 3800 1550
Connection ~ 4200 1550
Connection ~ 4200 1600
Connection ~ 4000 1550
Connection ~ 4000 1600
$Comp
L +3.3V #PWR?
U 1 1 54AE5D93
P 4000 1450
F 0 "#PWR?" H 4000 1410 30  0001 C CNN
F 1 "+3.3V" H 4000 1560 30  0000 C CNN
F 2 "" H 4000 1450 60  0000 C CNN
F 3 "" H 4000 1450 60  0000 C CNN
	1    4000 1450
	1    0    0    -1  
$EndComp
$Comp
L CRYSTAL_4PIN Y?
U 1 1 54AE5E83
P 6600 5600
F 0 "Y?" H 6600 5550 60  0000 C CNN
F 1 "40MHz_Q24FA20H00396" H 6600 5650 60  0000 C CNN
F 2 "~" H 6600 5600 60  0000 C CNN
F 3 "~" H 6600 5600 60  0000 C CNN
	1    6600 5600
	1    0    0    -1  
$EndComp
Wire Wire Line
	6050 5450 5550 5450
Wire Wire Line
	5550 5350 7200 5350
Wire Wire Line
	7200 5350 7200 5450
Wire Wire Line
	6050 5700 6050 5800
Wire Wire Line
	6050 5800 7200 5800
Wire Wire Line
	7200 5800 7200 5700
$Comp
L GND #PWR?
U 1 1 54AE5FB4
P 6650 5850
F 0 "#PWR?" H 6650 5850 30  0001 C CNN
F 1 "GND" H 6650 5780 30  0001 C CNN
F 2 "" H 6650 5850 60  0000 C CNN
F 3 "" H 6650 5850 60  0000 C CNN
	1    6650 5850
	1    0    0    -1  
$EndComp
Wire Wire Line
	6650 5850 6650 5800
Connection ~ 6650 5800
$Comp
L C C?
U 1 1 54AE60B8
P 5950 5700
F 0 "C?" H 5950 5800 40  0000 L CNN
F 1 "6.2pF" H 5956 5615 40  0000 L CNN
F 2 "~" H 5988 5550 30  0000 C CNN
F 3 "~" H 5950 5700 60  0000 C CNN
	1    5950 5700
	1    0    0    -1  
$EndComp
$Comp
L GND #PWR?
U 1 1 54AE60C5
P 5950 5900
F 0 "#PWR?" H 5950 5900 30  0001 C CNN
F 1 "GND" H 5950 5830 30  0001 C CNN
F 2 "" H 5950 5900 60  0000 C CNN
F 3 "" H 5950 5900 60  0000 C CNN
	1    5950 5900
	1    0    0    -1  
$EndComp
$Comp
L C C?
U 1 1 54AE60CB
P 7250 5600
F 0 "C?" H 7250 5700 40  0000 L CNN
F 1 "6.2pF" H 7256 5515 40  0000 L CNN
F 2 "~" H 7288 5450 30  0000 C CNN
F 3 "~" H 7250 5600 60  0000 C CNN
	1    7250 5600
	1    0    0    -1  
$EndComp
$Comp
L GND #PWR?
U 1 1 54AE60D1
P 7250 5800
F 0 "#PWR?" H 7250 5800 30  0001 C CNN
F 1 "GND" H 7250 5730 30  0001 C CNN
F 2 "" H 7250 5800 60  0000 C CNN
F 3 "" H 7250 5800 60  0000 C CNN
	1    7250 5800
	1    0    0    -1  
$EndComp
Wire Wire Line
	7250 5400 7200 5400
Connection ~ 7200 5400
Wire Wire Line
	5950 5500 5950 5450
Connection ~ 5950 5450
$Sheet
S 8800 2400 600  600 
U 54AE621D
F0 "spi_flash" 50
F1 "spi_flash.sch" 50
F2 "SFL_CS" I L 8800 2550 60 
F3 "SFL_DIN" O L 8800 2650 60 
F4 "SFL_DOUT" I L 8800 2750 60 
F5 "SFL_CLK" I L 8800 2850 60 
$EndSheet
Wire Wire Line
	5550 2550 8800 2550
Wire Wire Line
	5550 2650 8800 2650
Wire Wire Line
	5550 2750 8800 2750
Wire Wire Line
	5550 2850 8800 2850
$Comp
L R R?
U 1 1 54AE8564
P 3650 6650
F 0 "R?" V 3730 6650 40  0000 C CNN
F 1 "100k" V 3657 6651 40  0000 C CNN
F 2 "~" V 3580 6650 30  0000 C CNN
F 3 "~" H 3650 6650 30  0000 C CNN
	1    3650 6650
	1    0    0    -1  
$EndComp
$Comp
L R R?
U 1 1 54AE857B
P 3450 6650
F 0 "R?" V 3530 6650 40  0000 C CNN
F 1 "100k" V 3457 6651 40  0000 C CNN
F 2 "~" V 3380 6650 30  0000 C CNN
F 3 "~" H 3450 6650 30  0000 C CNN
	1    3450 6650
	1    0    0    -1  
$EndComp
$Comp
L R R?
U 1 1 54AE8581
P 3250 6650
F 0 "R?" V 3330 6650 40  0000 C CNN
F 1 "100k" V 3257 6651 40  0000 C CNN
F 2 "~" V 3180 6650 30  0000 C CNN
F 3 "~" H 3250 6650 30  0000 C CNN
	1    3250 6650
	1    0    0    -1  
$EndComp
$Comp
L +3.3V #PWR?
U 1 1 54AE8655
P 2550 6150
F 0 "#PWR?" H 2550 6110 30  0001 C CNN
F 1 "+3.3V" H 2550 6260 30  0000 C CNN
F 2 "" H 2550 6150 60  0000 C CNN
F 3 "" H 2550 6150 60  0000 C CNN
	1    2550 6150
	1    0    0    -1  
$EndComp
$Comp
L R R?
U 1 1 54AE8662
P 2550 6400
F 0 "R?" V 2630 6400 40  0000 C CNN
F 1 "1k" V 2557 6401 40  0000 C CNN
F 2 "~" V 2480 6400 30  0000 C CNN
F 3 "~" H 2550 6400 30  0000 C CNN
	1    2550 6400
	1    0    0    -1  
$EndComp
$Comp
L TEST W?
U 1 1 54AE884B
P 2850 6650
F 0 "W?" H 2850 6710 40  0000 C CNN
F 1 "FLASH_CON" H 2850 6580 40  0000 C CNN
F 2 "" H 2850 6650 60  0000 C CNN
F 3 "" H 2850 6650 60  0000 C CNN
	1    2850 6650
	1    0    0    -1  
$EndComp
Wire Wire Line
	2650 6650 2550 6650
Wire Wire Line
	3050 6650 3050 6400
Wire Wire Line
	3050 6400 3250 6400
Wire Wire Line
	3250 6400 3250 6200
Wire Wire Line
	3450 6200 3450 6400
Wire Wire Line
	3650 6200 3650 6400
$Comp
L GND #PWR?
U 1 1 54AE8A9F
P 3450 7000
F 0 "#PWR?" H 3450 7000 30  0001 C CNN
F 1 "GND" H 3450 6930 30  0001 C CNN
F 2 "" H 3450 7000 60  0000 C CNN
F 3 "" H 3450 7000 60  0000 C CNN
	1    3450 7000
	1    0    0    -1  
$EndComp
Wire Wire Line
	3450 6900 3450 7000
Wire Wire Line
	3250 6950 3650 6950
Wire Wire Line
	3650 6950 3650 6900
Connection ~ 3450 6950
Wire Wire Line
	3250 6900 3250 6950
$Comp
L GND #PWR?
U 1 1 54AE907F
P 4950 6300
F 0 "#PWR?" H 4950 6300 30  0001 C CNN
F 1 "GND" H 4950 6230 30  0001 C CNN
F 2 "" H 4950 6300 60  0000 C CNN
F 3 "" H 4950 6300 60  0000 C CNN
	1    4950 6300
	1    0    0    -1  
$EndComp
Wire Wire Line
	4650 6200 4650 6250
Wire Wire Line
	4650 6250 4950 6250
Wire Wire Line
	4950 6250 4950 6300
Wire Wire Line
	4450 6200 4450 6550
Wire Wire Line
	4450 6550 4600 6550
Wire Wire Line
	4600 6650 4250 6650
Wire Wire Line
	4250 6650 4250 6200
Wire Wire Line
	4050 6200 4050 6750
Wire Wire Line
	4050 6750 4600 6750
Wire Wire Line
	4600 6850 3850 6850
Wire Wire Line
	3850 6850 3850 6200
$Sheet
S 4600 6450 1450 500 
U 54AE9134
F0 "JTAG" 50
F1 "JTAG.sch" 50
F2 "BRD_JTAG_TDO" I L 4600 6550 60 
F3 "BRD_JTAG_TDI" O L 4600 6650 60 
F4 "BRD_JTAG_TMS" I L 4600 6750 60 
F5 "BRD_JTAG_TCK" I L 4600 6850 60 
F6 "CC_GPIO_02" O R 6050 6550 60 
F7 "CC_GPIO_01" I R 6050 6650 60 
F8 "FT_nSRST" O R 6050 6750 60 
$EndSheet
Wire Wire Line
	5550 3250 7600 3250
Wire Wire Line
	7600 3250 7600 6550
Wire Wire Line
	7600 6550 6050 6550
Wire Wire Line
	6050 6650 7700 6650
Wire Wire Line
	7700 6650 7700 3150
Wire Wire Line
	7700 3150 5550 3150
Text Notes 5150 7050 0    60   Italic 0
FT_nSRST is ft2232d triggered reset to system
$Sheet
S 5850 4050 550  400 
U 54AF8DC6
F0 "I2C" 50
F1 "I2C.sch" 50
F2 "I2C_SDA" B L 5850 4250 60 
F3 "I2C_SCL" B L 5850 4150 60 
$EndSheet
Wire Wire Line
	5550 4150 5850 4150
Wire Wire Line
	5850 4250 5550 4250
$EndSCHEMATC
