   12.0000  P  T01    0.000000    3.000000
   16.0000  P  T02    3.000000    3.000000
   25.5906  P  T03    3.000000    3.000000
   38.0000  P  T04    3.000000    3.000000
   39.3701  P  T05    3.000000    3.000000
