EESchema Schematic File Version 2
LIBS:power
LIBS:device
LIBS:transistors
LIBS:conn
LIBS:linear
LIBS:regul
LIBS:74xx
LIBS:cmos4000
LIBS:adc-dac
LIBS:memory
LIBS:xilinx
LIBS:special
LIBS:microcontrollers
LIBS:dsp
LIBS:microchip
LIBS:analog_switches
LIBS:motorola
LIBS:texas
LIBS:intel
LIBS:audio
LIBS:interface
LIBS:digital-audio
LIBS:philips
LIBS:display
LIBS:cypress
LIBS:siliconi
LIBS:opto
LIBS:atmel
LIBS:contrib
LIBS:valves
LIBS:quadcopter_custom
LIBS:rocket_booster-cache
EELAYER 25 0
EELAYER END
$Descr A4 11693 8268
encoding utf-8
Sheet 2 3
Title ""
Date "12 jan 2015"
Rev ""
Comp ""
Comment1 ""
Comment2 ""
Comment3 ""
Comment4 ""
$EndDescr
$Comp
L LSM9DS1 U6
U 1 1 54B308ED
P 5350 3050
F 0 "U6" H 5750 3150 60  0000 C CNN
F 1 "LSM9DS1" H 5750 3000 60  0000 C CNN
F 2 "qustom_footprints:LSM9DS1TR" H 5350 3050 60  0001 C CNN
F 3 "" H 5350 3050 60  0000 C CNN
	1    5350 3050
	1    0    0    -1  
$EndComp
$Comp
L GND #PWR042
U 1 1 54B30A11
P 5350 4400
F 0 "#PWR042" H 5350 4400 30  0001 C CNN
F 1 "GND" H 5350 4330 30  0001 C CNN
F 2 "" H 5350 4400 60  0000 C CNN
F 3 "" H 5350 4400 60  0000 C CNN
	1    5350 4400
	1    0    0    -1  
$EndComp
Wire Wire Line
	5050 4300 5650 4300
Connection ~ 5150 4300
Connection ~ 5250 4300
Connection ~ 5350 4300
Connection ~ 5450 4300
Connection ~ 5550 4300
Wire Wire Line
	5350 4400 5350 4300
$Comp
L C C13
U 1 1 54B30B51
P 4900 2250
F 0 "C13" H 4900 2350 40  0000 L CNN
F 1 "100nF" H 4906 2165 40  0000 L CNN
F 2 "SMD_Packages:SMD-0603_c" H 4938 2100 30  0000 C CNN
F 3 "~" H 4900 2250 60  0000 C CNN
	1    4900 2250
	1    0    0    -1  
$EndComp
$Comp
L GND #PWR043
U 1 1 54B30B60
P 4900 2500
F 0 "#PWR043" H 4900 2500 30  0001 C CNN
F 1 "GND" H 4900 2430 30  0001 C CNN
F 2 "" H 4900 2500 60  0000 C CNN
F 3 "" H 4900 2500 60  0000 C CNN
	1    4900 2500
	1    0    0    -1  
$EndComp
$Comp
L VDD #PWR044
U 1 1 54B30B6F
P 4900 2000
F 0 "#PWR044" H 4900 2100 30  0001 C CNN
F 1 "VDD" H 4900 2110 30  0000 C CNN
F 2 "" H 4900 2000 60  0000 C CNN
F 3 "" H 4900 2000 60  0000 C CNN
	1    4900 2000
	1    0    0    -1  
$EndComp
Wire Wire Line
	4900 2000 4900 2050
Wire Wire Line
	4900 2450 4900 2500
Wire Wire Line
	4900 2050 5300 2050
Wire Wire Line
	5200 2050 5200 2300
Wire Wire Line
	5300 2050 5300 2300
Connection ~ 5200 2050
$Comp
L C C14
U 1 1 54B30DF1
P 5700 2250
F 0 "C14" H 5700 2350 40  0000 L CNN
F 1 "100nF" H 5706 2165 40  0000 L CNN
F 2 "SMD_Packages:SMD-0603_c" H 5738 2100 30  0000 C CNN
F 3 "~" H 5700 2250 60  0000 C CNN
	1    5700 2250
	1    0    0    -1  
$EndComp
$Comp
L C C15
U 1 1 54B30DF7
P 5900 2250
F 0 "C15" H 5900 2350 40  0000 L CNN
F 1 "10uF" H 5906 2165 40  0000 L CNN
F 2 "SMD_Packages:SMD-0603_c" H 5938 2100 30  0000 C CNN
F 3 "~" H 5900 2250 60  0000 C CNN
	1    5900 2250
	1    0    0    -1  
$EndComp
$Comp
L GND #PWR045
U 1 1 54B30E09
P 5700 2500
F 0 "#PWR045" H 5700 2500 30  0001 C CNN
F 1 "GND" H 5700 2430 30  0001 C CNN
F 2 "" H 5700 2500 60  0000 C CNN
F 3 "" H 5700 2500 60  0000 C CNN
	1    5700 2500
	1    0    0    -1  
$EndComp
$Comp
L GND #PWR046
U 1 1 54B30E0F
P 5900 2500
F 0 "#PWR046" H 5900 2500 30  0001 C CNN
F 1 "GND" H 5900 2430 30  0001 C CNN
F 2 "" H 5900 2500 60  0000 C CNN
F 3 "" H 5900 2500 60  0000 C CNN
	1    5900 2500
	1    0    0    -1  
$EndComp
Wire Wire Line
	5400 2050 5900 2050
Wire Wire Line
	5400 2050 5400 2300
Connection ~ 5700 2050
Wire Wire Line
	5500 2300 5500 2050
Connection ~ 5500 2050
Wire Wire Line
	5700 2450 5700 2500
Wire Wire Line
	5900 2450 5900 2500
$Comp
L VDD #PWR047
U 1 1 54B30F8B
P 5900 2000
F 0 "#PWR047" H 5900 2100 30  0001 C CNN
F 1 "VDD" H 5900 2110 30  0000 C CNN
F 2 "" H 5900 2000 60  0000 C CNN
F 3 "" H 5900 2000 60  0000 C CNN
	1    5900 2000
	1    0    0    -1  
$EndComp
Wire Wire Line
	5900 2050 5900 2000
$Comp
L C C18
U 1 1 54B311E8
P 6500 3900
F 0 "C18" H 6500 4000 40  0000 L CNN
F 1 "100nF" H 6506 3815 40  0000 L CNN
F 2 "SMD_Packages:SMD-0603_c" H 6538 3750 30  0000 C CNN
F 3 "~" H 6500 3900 60  0000 C CNN
	1    6500 3900
	1    0    0    -1  
$EndComp
$Comp
L C C16
U 1 1 54B311EE
P 6250 3950
F 0 "C16" H 6250 4050 40  0000 L CNN
F 1 "10nF" H 6256 3865 40  0000 L CNN
F 2 "SMD_Packages:SMD-0603_c" H 6288 3800 30  0000 C CNN
F 3 "~" H 6250 3950 60  0000 C CNN
	1    6250 3950
	1    0    0    -1  
$EndComp
$Comp
L GND #PWR048
U 1 1 54B31202
P 6250 4200
F 0 "#PWR048" H 6250 4200 30  0001 C CNN
F 1 "GND" H 6250 4130 30  0001 C CNN
F 2 "" H 6250 4200 60  0000 C CNN
F 3 "" H 6250 4200 60  0000 C CNN
	1    6250 4200
	1    0    0    -1  
$EndComp
$Comp
L GND #PWR049
U 1 1 54B3120F
P 6500 4150
F 0 "#PWR049" H 6500 4150 30  0001 C CNN
F 1 "GND" H 6500 4080 30  0001 C CNN
F 2 "" H 6500 4150 60  0000 C CNN
F 3 "" H 6500 4150 60  0000 C CNN
	1    6500 4150
	1    0    0    -1  
$EndComp
Wire Wire Line
	6050 3650 6500 3650
Wire Wire Line
	6500 3650 6500 3700
Wire Wire Line
	6500 4100 6500 4150
Wire Wire Line
	6050 3750 6250 3750
Wire Wire Line
	6250 4150 6250 4200
$Comp
L VDD #PWR050
U 1 1 54B31599
P 6300 3100
F 0 "#PWR050" H 6300 3200 30  0001 C CNN
F 1 "VDD" H 6300 3210 30  0000 C CNN
F 2 "" H 6300 3100 60  0000 C CNN
F 3 "" H 6300 3100 60  0000 C CNN
	1    6300 3100
	1    0    0    -1  
$EndComp
$Comp
L C C17
U 1 1 54B315AC
P 6300 3350
F 0 "C17" H 6300 3450 40  0000 L CNN
F 1 "100nF" H 6306 3265 40  0000 L CNN
F 2 "SMD_Packages:SMD-0603_c" H 6338 3200 30  0000 C CNN
F 3 "~" H 6300 3350 60  0000 C CNN
	1    6300 3350
	1    0    0    -1  
$EndComp
$Comp
L GND #PWR051
U 1 1 54B315BE
P 6300 3600
F 0 "#PWR051" H 6300 3600 30  0001 C CNN
F 1 "GND" H 6300 3530 30  0001 C CNN
F 2 "" H 6300 3600 60  0000 C CNN
F 3 "" H 6300 3600 60  0000 C CNN
	1    6300 3600
	1    0    0    -1  
$EndComp
Wire Wire Line
	6300 3550 6300 3600
Wire Wire Line
	6300 3150 6300 3100
Wire Wire Line
	6050 3450 6150 3450
Wire Wire Line
	6150 3150 6150 3550
Wire Wire Line
	6150 3150 6300 3150
Wire Wire Line
	6150 3550 6050 3550
Connection ~ 6150 3450
Text HLabel 4200 3050 0    60   BiDi ~ 0
iNEMO_SDA
Text HLabel 4200 2950 0    60   Input ~ 0
iNEMO_SCL
Wire Wire Line
	4200 2950 4600 2950
Wire Wire Line
	4600 3050 4200 3050
$Comp
L GS3 GS1
U 1 1 54B318C9
P 3700 3150
F 0 "GS1" H 3750 3350 50  0000 C CNN
F 1 "GS3" H 3750 2951 40  0000 C CNN
F 2 "Connect:GS3" H 3700 3150 60  0001 C CNN
F 3 "" H 3700 3150 60  0000 C CNN
	1    3700 3150
	1    0    0    -1  
$EndComp
$Comp
L GS3 GS2
U 1 1 54B318E0
P 3700 3500
F 0 "GS2" H 3750 3700 50  0000 C CNN
F 1 "GS3" H 3750 3301 40  0000 C CNN
F 2 "Connect:GS3" H 3700 3500 60  0001 C CNN
F 3 "" H 3700 3500 60  0000 C CNN
	1    3700 3500
	1    0    0    -1  
$EndComp
Wire Wire Line
	3850 3150 4600 3150
Wire Wire Line
	4600 3250 3850 3250
Wire Wire Line
	3850 3250 3850 3500
$Comp
L GND #PWR052
U 1 1 54B31BB6
P 3550 3650
F 0 "#PWR052" H 3550 3650 30  0001 C CNN
F 1 "GND" H 3550 3580 30  0001 C CNN
F 2 "" H 3550 3650 60  0000 C CNN
F 3 "" H 3550 3650 60  0000 C CNN
	1    3550 3650
	1    0    0    -1  
$EndComp
Wire Wire Line
	3550 3250 3500 3250
Wire Wire Line
	3500 3250 3500 3600
Wire Wire Line
	3500 3600 3550 3600
Wire Wire Line
	3550 3600 3550 3650
$Comp
L VDD #PWR053
U 1 1 54B31D47
P 3550 2950
F 0 "#PWR053" H 3550 3050 30  0001 C CNN
F 1 "VDD" H 3550 3060 30  0000 C CNN
F 2 "" H 3550 2950 60  0000 C CNN
F 3 "" H 3550 2950 60  0000 C CNN
	1    3550 2950
	1    0    0    -1  
$EndComp
Wire Wire Line
	3550 2950 3550 3050
Wire Wire Line
	3550 3400 3450 3400
Wire Wire Line
	3450 3400 3450 3050
Wire Wire Line
	3450 3050 3550 3050
NoConn ~ 4600 3650
NoConn ~ 4600 3550
NoConn ~ 4600 3450
NoConn ~ 4600 3350
$Comp
L VDD #PWR054
U 1 1 54B31EE8
P 4500 3700
F 0 "#PWR054" H 4500 3800 30  0001 C CNN
F 1 "VDD" H 4500 3810 30  0000 C CNN
F 2 "" H 4500 3700 60  0000 C CNN
F 3 "" H 4500 3700 60  0000 C CNN
	1    4500 3700
	1    0    0    -1  
$EndComp
Wire Wire Line
	4600 3750 4500 3750
Wire Wire Line
	4500 3750 4500 3700
Text HLabel 3550 3950 0    60   Input ~ 0
iNEMO_VDD
Text HLabel 3550 4050 0    60   Input ~ 0
iNEMO_GND
$Comp
L VDD #PWR055
U 1 1 54B32B8C
P 3700 3900
F 0 "#PWR055" H 3700 4000 30  0001 C CNN
F 1 "VDD" H 3700 4010 30  0000 C CNN
F 2 "" H 3700 3900 60  0000 C CNN
F 3 "" H 3700 3900 60  0000 C CNN
	1    3700 3900
	1    0    0    -1  
$EndComp
$Comp
L GND #PWR056
U 1 1 54B32B9B
P 3700 4100
F 0 "#PWR056" H 3700 4100 30  0001 C CNN
F 1 "GND" H 3700 4030 30  0001 C CNN
F 2 "" H 3700 4100 60  0000 C CNN
F 3 "" H 3700 4100 60  0000 C CNN
	1    3700 4100
	1    0    0    -1  
$EndComp
Wire Wire Line
	3550 3950 3700 3950
Wire Wire Line
	3700 3950 3700 3900
Wire Wire Line
	3550 4050 3700 4050
Wire Wire Line
	3700 4050 3700 4100
$EndSCHEMATC
