EESchema Schematic File Version 2
LIBS:power
LIBS:device
LIBS:transistors
LIBS:conn
LIBS:linear
LIBS:regul
LIBS:74xx
LIBS:cmos4000
LIBS:adc-dac
LIBS:memory
LIBS:xilinx
LIBS:special
LIBS:microcontrollers
LIBS:dsp
LIBS:microchip
LIBS:analog_switches
LIBS:motorola
LIBS:texas
LIBS:intel
LIBS:audio
LIBS:interface
LIBS:digital-audio
LIBS:philips
LIBS:display
LIBS:cypress
LIBS:siliconi
LIBS:opto
LIBS:atmel
LIBS:contrib
LIBS:valves
LIBS:quadcopter_custom
LIBS:rocket_booster-cache
EELAYER 25 0
EELAYER END
$Descr A4 11693 8268
encoding utf-8
Sheet 1 3
Title ""
Date "12 jan 2015"
Rev ""
Comp ""
Comment1 ""
Comment2 ""
Comment3 ""
Comment4 ""
$EndDescr
$Comp
L GND #PWR01
U 1 1 54AF3DB9
P 4050 1200
F 0 "#PWR01" H 4050 1200 30  0001 C CNN
F 1 "GND" H 4050 1130 30  0001 C CNN
F 2 "" H 4050 1200 60  0000 C CNN
F 3 "" H 4050 1200 60  0000 C CNN
	1    4050 1200
	1    0    0    -1  
$EndComp
$Comp
L R R8
U 1 1 54AF3DCA
P 4200 2250
F 0 "R8" V 4280 2250 40  0000 C CNN
F 1 "10k" V 4207 2251 40  0000 C CNN
F 2 "SMD_Packages:SMD-0603_r" V 4130 2250 30  0001 C CNN
F 3 "~" H 4200 2250 30  0000 C CNN
	1    4200 2250
	1    0    0    -1  
$EndComp
$Comp
L GND #PWR02
U 1 1 54AF3DD7
P 4200 2550
F 0 "#PWR02" H 4200 2550 30  0001 C CNN
F 1 "GND" H 4200 2480 30  0001 C CNN
F 2 "" H 4200 2550 60  0000 C CNN
F 3 "" H 4200 2550 60  0000 C CNN
	1    4200 2550
	1    0    0    -1  
$EndComp
Text Label 1450 1250 2    60   ~ 0
I2C_SCL
Text Label 1450 1350 2    60   ~ 0
GPIO_12/pVS
Text Label 1450 1450 2    60   ~ 0
GPIO_01/pCLK
Text Label 1450 1550 2    60   ~ 0
GPIO_17/pDATA[11]
Text Label 1450 1650 2    60   ~ 0
GPIO_15/pDATA[9]
$Comp
L MT9D111_HEADER U1
U 1 1 54AF3F47
P 2850 1600
F 0 "U1" H 2850 1050 60  0000 C CNN
F 1 "MT9D111_HEADER" H 2800 2150 60  0000 C CNN
F 2 "Pin_Headers:Pin_Header_Straight_2x10" H 2850 1600 60  0001 C CNN
F 3 "~" H 2850 1600 60  0000 C CNN
	1    2850 1600
	1    0    0    -1  
$EndComp
Text Label 1450 1750 2    60   ~ 0
GPIO_03/pDATA[7]
Text Label 1450 1850 2    60   ~ 0
GPIO_05/pDATA[5]
Text Label 4200 1250 0    60   ~ 0
I2C_SDA
Text Label 4200 1350 0    60   ~ 0
GPIO_13/pHS
Text Label 4200 1450 0    60   ~ 0
GPIO_11/pXCLK
Text Label 4200 1550 0    60   ~ 0
GPIO_16/pDATA[10]
Text Label 4200 1650 0    60   ~ 0
GPIO_14/pDATA[8]
Text Label 4200 1750 0    60   ~ 0
GPIO_04/pDATA[6]
Text Label 4200 1850 0    60   ~ 0
GPIO_06/pDATA[4]
Text Label 4200 1950 0    60   ~ 0
GPIO_02/pPWRDN
$Comp
L MT9D111_FLEX_HEADER U5
U 1 1 54AF40F0
P 10400 2700
F 0 "U5" H 10400 1500 60  0000 C CNN
F 1 "MT9D111_FLEX_HEADER" H 10350 3850 60  0000 C CNN
F 2 "qustom_footprints:WP3-S024VA1-R500" H 10400 2700 60  0001 C CNN
F 3 "~" H 10400 2700 60  0000 C CNN
	1    10400 2700
	1    0    0    -1  
$EndComp
$Comp
L +2.5V #PWR03
U 1 1 54AF47A6
P 9300 1050
F 0 "#PWR03" H 9300 1000 20  0001 C CNN
F 1 "+2.5V" H 9300 1150 30  0000 C CNN
F 2 "" H 9300 1050 60  0000 C CNN
F 3 "" H 9300 1050 60  0000 C CNN
	1    9300 1050
	1    0    0    -1  
$EndComp
$Comp
L C C12
U 1 1 54AF47BA
P 9500 1300
F 0 "C12" H 9500 1400 40  0000 L CNN
F 1 "0.1uF" H 9506 1215 40  0000 L CNN
F 2 "SMD_Packages:SMD-0603_c" H 9538 1150 30  0001 C CNN
F 3 "" H 9500 1300 60  0000 C CNN
	1    9500 1300
	1    0    0    -1  
$EndComp
$Comp
L C C11
U 1 1 54AF47F1
P 9100 1300
F 0 "C11" H 9100 1400 40  0000 L CNN
F 1 "0.1uF" H 9106 1215 40  0000 L CNN
F 2 "SMD_Packages:SMD-0603_c" H 9138 1150 30  0001 C CNN
F 3 "" H 9100 1300 60  0000 C CNN
	1    9100 1300
	1    0    0    -1  
$EndComp
$Comp
L GND #PWR04
U 1 1 54AF48C1
P 9100 1550
F 0 "#PWR04" H 9100 1550 30  0001 C CNN
F 1 "GND" H 9100 1480 30  0001 C CNN
F 2 "" H 9100 1550 60  0000 C CNN
F 3 "" H 9100 1550 60  0000 C CNN
	1    9100 1550
	1    0    0    -1  
$EndComp
$Comp
L GND #PWR05
U 1 1 54AF48DD
P 9500 1550
F 0 "#PWR05" H 9500 1550 30  0001 C CNN
F 1 "GND" H 9500 1480 30  0001 C CNN
F 2 "" H 9500 1550 60  0000 C CNN
F 3 "" H 9500 1550 60  0000 C CNN
	1    9500 1550
	1    0    0    -1  
$EndComp
$Comp
L C C10
U 1 1 54AF4A45
P 8800 1750
F 0 "C10" H 8800 1850 40  0000 L CNN
F 1 "0.1uF" H 8806 1665 40  0000 L CNN
F 2 "SMD_Packages:SMD-0603_c" H 8838 1600 30  0001 C CNN
F 3 "" H 8800 1750 60  0000 C CNN
	1    8800 1750
	1    0    0    -1  
$EndComp
$Comp
L +1.8V #PWR06
U 1 1 54AF4A7C
P 8800 1500
F 0 "#PWR06" H 8800 1640 20  0001 C CNN
F 1 "+1.8V" H 8800 1610 30  0000 C CNN
F 2 "" H 8800 1500 60  0000 C CNN
F 3 "" H 8800 1500 60  0000 C CNN
	1    8800 1500
	1    0    0    -1  
$EndComp
$Comp
L GND #PWR07
U 1 1 54AF4A94
P 8800 2000
F 0 "#PWR07" H 8800 2000 30  0001 C CNN
F 1 "GND" H 8800 1930 30  0001 C CNN
F 2 "" H 8800 2000 60  0000 C CNN
F 3 "" H 8800 2000 60  0000 C CNN
	1    8800 2000
	1    0    0    -1  
$EndComp
Text Label 9650 2000 2    60   ~ 0
RESET_OUT
Text Label 9650 2100 2    60   ~ 0
GPIO_02/pPWRDN
Text Label 9650 2200 2    60   ~ 0
I2C_SDA
Text Label 9650 2300 2    60   ~ 0
I2C_SCL
Text Label 9650 2400 2    60   ~ 0
GPIO_01/pCLK
Text Label 9650 2500 2    60   ~ 0
GPIO_11/pXCLK
Text Label 9650 2600 2    60   ~ 0
GPIO_12/pVS
Text Label 9650 2700 2    60   ~ 0
GPIO_13/pHS
Text Label 9650 2800 2    60   ~ 0
GPIO_06/pDATA[4]
Text Label 9650 2900 2    60   ~ 0
GPIO_05/pDATA[5]
Text Label 9650 3000 2    60   ~ 0
GPIO_04/pDATA[6]
Text Label 9650 3100 2    60   ~ 0
GPIO_03/pDATA[7]
Text Label 9650 3200 2    60   ~ 0
GPIO_14/pDATA[8]
Text Label 9650 3300 2    60   ~ 0
GPIO_15/pDATA[9]
Text Label 9650 3400 2    60   ~ 0
GPIO_16/pDATA[10]
Text Label 9650 3500 2    60   ~ 0
GPIO_17/pDATA[11]
$Comp
L R R14
U 1 1 54AF513A
P 9650 4050
F 0 "R14" V 9730 4050 40  0000 C CNN
F 1 "10K" V 9657 4051 40  0000 C CNN
F 2 "SMD_Packages:SMD-0603_r" V 9580 4050 30  0001 C CNN
F 3 "" H 9650 4050 30  0000 C CNN
	1    9650 4050
	1    0    0    -1  
$EndComp
$Comp
L GND #PWR08
U 1 1 54AF516F
P 9650 4350
F 0 "#PWR08" H 9650 4350 30  0001 C CNN
F 1 "GND" H 9650 4280 30  0001 C CNN
F 2 "" H 9650 4350 60  0000 C CNN
F 3 "" H 9650 4350 60  0000 C CNN
	1    9650 4350
	1    0    0    -1  
$EndComp
$Comp
L GND #PWR09
U 1 1 54AF5281
P 11000 3400
F 0 "#PWR09" H 11000 3400 30  0001 C CNN
F 1 "GND" H 11000 3330 30  0001 C CNN
F 2 "" H 11000 3400 60  0000 C CNN
F 3 "" H 11000 3400 60  0000 C CNN
	1    11000 3400
	1    0    0    -1  
$EndComp
$Comp
L TPS79301 U4
U 1 1 54AF5577
P 7300 5400
F 0 "U4" H 7300 5200 60  0000 C CNN
F 1 "TPS79301" H 7300 5600 60  0000 C CNN
F 2 "SMD_Packages:SOT-23-6" H 7300 5400 60  0001 C CNN
F 3 "" H 7300 5400 60  0000 C CNN
	1    7300 5400
	1    0    0    -1  
$EndComp
$Comp
L GND #PWR010
U 1 1 54AF55DE
P 6650 5650
F 0 "#PWR010" H 6650 5650 30  0001 C CNN
F 1 "GND" H 6650 5580 30  0001 C CNN
F 2 "" H 6650 5650 60  0000 C CNN
F 3 "" H 6650 5650 60  0000 C CNN
	1    6650 5650
	1    0    0    -1  
$EndComp
$Comp
L GND #PWR011
U 1 1 54AF55F8
P 6450 5750
F 0 "#PWR011" H 6450 5750 30  0001 C CNN
F 1 "GND" H 6450 5680 30  0001 C CNN
F 2 "" H 6450 5750 60  0000 C CNN
F 3 "" H 6450 5750 60  0000 C CNN
	1    6450 5750
	1    0    0    -1  
$EndComp
$Comp
L GND #PWR012
U 1 1 54AF560B
P 7950 5950
F 0 "#PWR012" H 7950 5950 30  0001 C CNN
F 1 "GND" H 7950 5880 30  0001 C CNN
F 2 "" H 7950 5950 60  0000 C CNN
F 3 "" H 7950 5950 60  0000 C CNN
	1    7950 5950
	1    0    0    -1  
$EndComp
$Comp
L GND #PWR013
U 1 1 54AF561E
P 8300 5950
F 0 "#PWR013" H 8300 5950 30  0001 C CNN
F 1 "GND" H 8300 5880 30  0001 C CNN
F 2 "" H 8300 5950 60  0000 C CNN
F 3 "" H 8300 5950 60  0000 C CNN
	1    8300 5950
	1    0    0    -1  
$EndComp
$Comp
L GND #PWR014
U 1 1 54AF5639
P 8650 5250
F 0 "#PWR014" H 8650 5250 30  0001 C CNN
F 1 "GND" H 8650 5180 30  0001 C CNN
F 2 "" H 8650 5250 60  0000 C CNN
F 3 "" H 8650 5250 60  0000 C CNN
	1    8650 5250
	1    0    0    -1  
$EndComp
$Comp
L C C3
U 1 1 54AF564E
P 6450 5500
F 0 "C3" H 6450 5600 40  0000 L CNN
F 1 "2.2Uf" H 6456 5415 40  0000 L CNN
F 2 "SMD_Packages:SMD-0603_c" H 6488 5350 30  0001 C CNN
F 3 "" H 6450 5500 60  0000 C CNN
	1    6450 5500
	1    0    0    -1  
$EndComp
$Comp
L C C6
U 1 1 54AF56B9
P 7950 5700
F 0 "C6" H 7950 5800 40  0000 L CNN
F 1 "0.1Uf" H 7956 5615 40  0000 L CNN
F 2 "SMD_Packages:SMD-0603_c" H 7988 5550 30  0001 C CNN
F 3 "" H 7950 5700 60  0000 C CNN
	1    7950 5700
	1    0    0    -1  
$EndComp
$Comp
L C C7
U 1 1 54AF5701
P 8100 5000
F 0 "C7" H 8100 5100 40  0000 L CNN
F 1 "22pF" H 8106 4915 40  0000 L CNN
F 2 "SMD_Packages:SMD-0603_c" H 8138 4850 30  0001 C CNN
F 3 "" H 8100 5000 60  0000 C CNN
	1    8100 5000
	1    0    0    -1  
$EndComp
$Comp
L R R13
U 1 1 54AF5731
P 8300 5600
F 0 "R13" V 8380 5600 40  0000 C CNN
F 1 "30.1k" V 8307 5601 40  0000 C CNN
F 2 "SMD_Packages:SMD-0603_r" V 8230 5600 30  0001 C CNN
F 3 "" H 8300 5600 30  0000 C CNN
	1    8300 5600
	1    0    0    -1  
$EndComp
$Comp
L R R12
U 1 1 54AF5796
P 8300 5050
F 0 "R12" V 8380 5050 40  0000 C CNN
F 1 "15k" V 8307 5051 40  0000 C CNN
F 2 "SMD_Packages:SMD-0603_r" V 8230 5050 30  0001 C CNN
F 3 "" H 8300 5050 30  0000 C CNN
	1    8300 5050
	1    0    0    -1  
$EndComp
$Comp
L C C9
U 1 1 54AF57CD
P 8650 5000
F 0 "C9" H 8650 5100 40  0000 L CNN
F 1 "2.2uF" H 8656 4915 40  0000 L CNN
F 2 "SMD_Packages:SMD-0603_c" H 8688 4850 30  0001 C CNN
F 3 "" H 8650 5000 60  0000 C CNN
	1    8650 5000
	1    0    0    -1  
$EndComp
$Comp
L +3.3V #PWR015
U 1 1 54AF594F
P 1650 1050
F 0 "#PWR015" H 1650 1010 30  0001 C CNN
F 1 "+3.3V" H 1650 1160 30  0000 C CNN
F 2 "" H 1650 1050 60  0000 C CNN
F 3 "" H 1650 1050 60  0000 C CNN
	1    1650 1050
	1    0    0    -1  
$EndComp
$Comp
L +3.3V #PWR016
U 1 1 54AF5C02
P 6450 5250
F 0 "#PWR016" H 6450 5210 30  0001 C CNN
F 1 "+3.3V" H 6450 5360 30  0000 C CNN
F 2 "" H 6450 5250 60  0000 C CNN
F 3 "" H 6450 5250 60  0000 C CNN
	1    6450 5250
	1    0    0    -1  
$EndComp
$Comp
L +1.8V #PWR017
U 1 1 54AF5C82
P 8300 4700
F 0 "#PWR017" H 8300 4840 20  0001 C CNN
F 1 "+1.8V" H 8300 4810 30  0000 C CNN
F 2 "" H 8300 4700 60  0000 C CNN
F 3 "" H 8300 4700 60  0000 C CNN
	1    8300 4700
	1    0    0    -1  
$EndComp
$Comp
L TPS79301 U3
U 1 1 54AF6C64
P 7050 3900
F 0 "U3" H 7050 3700 60  0000 C CNN
F 1 "TPS79301" H 7050 4100 60  0000 C CNN
F 2 "SMD_Packages:SOT-23-6" H 7050 3900 60  0001 C CNN
F 3 "" H 7050 3900 60  0000 C CNN
	1    7050 3900
	1    0    0    -1  
$EndComp
$Comp
L GND #PWR018
U 1 1 54AF6C6A
P 6400 4150
F 0 "#PWR018" H 6400 4150 30  0001 C CNN
F 1 "GND" H 6400 4080 30  0001 C CNN
F 2 "" H 6400 4150 60  0000 C CNN
F 3 "" H 6400 4150 60  0000 C CNN
	1    6400 4150
	1    0    0    -1  
$EndComp
$Comp
L GND #PWR019
U 1 1 54AF6C70
P 6200 4250
F 0 "#PWR019" H 6200 4250 30  0001 C CNN
F 1 "GND" H 6200 4180 30  0001 C CNN
F 2 "" H 6200 4250 60  0000 C CNN
F 3 "" H 6200 4250 60  0000 C CNN
	1    6200 4250
	1    0    0    -1  
$EndComp
$Comp
L GND #PWR020
U 1 1 54AF6C76
P 7700 4450
F 0 "#PWR020" H 7700 4450 30  0001 C CNN
F 1 "GND" H 7700 4380 30  0001 C CNN
F 2 "" H 7700 4450 60  0000 C CNN
F 3 "" H 7700 4450 60  0000 C CNN
	1    7700 4450
	1    0    0    -1  
$EndComp
$Comp
L GND #PWR021
U 1 1 54AF6C7C
P 8050 4450
F 0 "#PWR021" H 8050 4450 30  0001 C CNN
F 1 "GND" H 8050 4380 30  0001 C CNN
F 2 "" H 8050 4450 60  0000 C CNN
F 3 "" H 8050 4450 60  0000 C CNN
	1    8050 4450
	1    0    0    -1  
$EndComp
$Comp
L GND #PWR022
U 1 1 54AF6C82
P 8400 3750
F 0 "#PWR022" H 8400 3750 30  0001 C CNN
F 1 "GND" H 8400 3680 30  0001 C CNN
F 2 "" H 8400 3750 60  0000 C CNN
F 3 "" H 8400 3750 60  0000 C CNN
	1    8400 3750
	1    0    0    -1  
$EndComp
$Comp
L C C2
U 1 1 54AF6C88
P 6200 4000
F 0 "C2" H 6200 4100 40  0000 L CNN
F 1 "2.2Uf" H 6206 3915 40  0000 L CNN
F 2 "SMD_Packages:SMD-0603_c" H 6238 3850 30  0001 C CNN
F 3 "" H 6200 4000 60  0000 C CNN
	1    6200 4000
	1    0    0    -1  
$EndComp
$Comp
L C C4
U 1 1 54AF6C8E
P 7700 4200
F 0 "C4" H 7700 4300 40  0000 L CNN
F 1 "0.1Uf" H 7706 4115 40  0000 L CNN
F 2 "SMD_Packages:SMD-0603_c" H 7738 4050 30  0001 C CNN
F 3 "" H 7700 4200 60  0000 C CNN
	1    7700 4200
	1    0    0    -1  
$EndComp
$Comp
L C C5
U 1 1 54AF6C94
P 7850 3500
F 0 "C5" H 7850 3600 40  0000 L CNN
F 1 "22pF" H 7856 3415 40  0000 L CNN
F 2 "SMD_Packages:SMD-0603_c" H 7888 3350 30  0001 C CNN
F 3 "" H 7850 3500 60  0000 C CNN
	1    7850 3500
	1    0    0    -1  
$EndComp
$Comp
L R R11
U 1 1 54AF6C9A
P 8050 4100
F 0 "R11" V 8130 4100 40  0000 C CNN
F 1 "30.1k" V 8057 4101 40  0000 C CNN
F 2 "SMD_Packages:SMD-0603_r" V 7980 4100 30  0001 C CNN
F 3 "" H 8050 4100 30  0000 C CNN
	1    8050 4100
	1    0    0    -1  
$EndComp
$Comp
L R R10
U 1 1 54AF6CA0
P 8050 3550
F 0 "R10" V 8130 3550 40  0000 C CNN
F 1 "39k" V 8057 3551 40  0000 C CNN
F 2 "SMD_Packages:SMD-0603_r" V 7980 3550 30  0001 C CNN
F 3 "" H 8050 3550 30  0000 C CNN
	1    8050 3550
	1    0    0    -1  
$EndComp
$Comp
L C C8
U 1 1 54AF6CA6
P 8400 3500
F 0 "C8" H 8400 3600 40  0000 L CNN
F 1 "2.2uF" H 8406 3415 40  0000 L CNN
F 2 "SMD_Packages:SMD-0603_c" H 8438 3350 30  0001 C CNN
F 3 "" H 8400 3500 60  0000 C CNN
	1    8400 3500
	1    0    0    -1  
$EndComp
$Comp
L +3.3V #PWR023
U 1 1 54AF6CAC
P 6200 3750
F 0 "#PWR023" H 6200 3710 30  0001 C CNN
F 1 "+3.3V" H 6200 3860 30  0000 C CNN
F 2 "" H 6200 3750 60  0000 C CNN
F 3 "" H 6200 3750 60  0000 C CNN
	1    6200 3750
	1    0    0    -1  
$EndComp
$Comp
L +2.5V #PWR024
U 1 1 54AF6D91
P 8050 3200
F 0 "#PWR024" H 8050 3150 20  0001 C CNN
F 1 "+2.5V" H 8050 3300 30  0000 C CNN
F 2 "" H 8050 3200 60  0000 C CNN
F 3 "" H 8050 3200 60  0000 C CNN
	1    8050 3200
	1    0    0    -1  
$EndComp
$Comp
L CONN_02X10 P1
U 1 1 54AF7167
P 1900 6750
F 0 "P1" H 1900 7300 50  0000 C CNN
F 1 "CONN_02X10" V 1900 6750 50  0000 C CNN
F 2 "Pin_Headers:Pin_Header_Straight_2x10" H 1900 5550 60  0001 C CNN
F 3 "" H 1900 5550 60  0000 C CNN
	1    1900 6750
	1    0    0    -1  
$EndComp
$Comp
L CONN_02X10 P2
U 1 1 54AF71CE
P 4650 6750
F 0 "P2" H 4650 7300 50  0000 C CNN
F 1 "CONN_02X10" V 4650 6750 50  0000 C CNN
F 2 "Pin_Headers:Pin_Header_Straight_2x10" H 4650 5550 60  0001 C CNN
F 3 "" H 4650 5550 60  0000 C CNN
	1    4650 6750
	1    0    0    -1  
$EndComp
Text Label 1550 6500 2    60   ~ 0
GPIO_13/pHS
Text Label 1550 7200 2    60   ~ 0
GPIO_11/pXCLK
Text Label 1550 6900 2    60   ~ 0
GPIO_14/pDATA[8]
Text Label 1550 6800 2    60   ~ 0
GPIO_04/pDATA[6]
Text Label 1550 6700 2    60   ~ 0
GPIO_06/pDATA[4]
Text Label 2550 6500 0    60   ~ 0
GPIO_02/pPWRDN
Text Label 1550 6600 2    60   ~ 0
GPIO_12/pVS
Text Label 1550 6400 2    60   ~ 0
GPIO_03/pDATA[7]
Text Label 2550 6600 0    60   ~ 0
GPIO_05/pDATA[5]
$Comp
L +3.3V #PWR025
U 1 1 54AF7632
P 1600 6250
F 0 "#PWR025" H 1600 6210 30  0001 C CNN
F 1 "+3.3V" H 1600 6360 30  0000 C CNN
F 2 "" H 1600 6250 60  0000 C CNN
F 3 "" H 1600 6250 60  0000 C CNN
	1    1600 6250
	1    0    0    -1  
$EndComp
$Comp
L GND #PWR026
U 1 1 54AF7799
P 2400 6650
F 0 "#PWR026" H 2400 6650 30  0001 C CNN
F 1 "GND" H 2400 6580 30  0001 C CNN
F 2 "" H 2400 6650 60  0000 C CNN
F 3 "" H 2400 6650 60  0000 C CNN
	1    2400 6650
	1    0    0    -1  
$EndComp
NoConn ~ 1650 7100
NoConn ~ 2150 6300
NoConn ~ 2150 6700
NoConn ~ 2150 6800
NoConn ~ 2150 6900
NoConn ~ 2150 7000
NoConn ~ 2150 7100
NoConn ~ 2150 7200
Text Label 5050 6800 0    60   ~ 0
GPIO_16/pDATA[10]
Text Label 5050 6900 0    60   ~ 0
GPIO_15/pDATA[9]
Text Label 5050 6500 0    60   ~ 0
GPIO_17/pDATA[11]
Text Label 5050 7100 0    60   ~ 0
GPIO_01/pCLK
Text Label 4300 7100 2    60   ~ 0
GPIO_23/I2C_SCL
Text Label 4300 7200 2    60   ~ 0
GPIO_24/I2C_SDA
Text Label 5050 6700 0    60   ~ 0
RESET_OUT
$Comp
L +2.5V #PWR027
U 1 1 54AF9720
P 6150 6100
F 0 "#PWR027" H 6150 6050 20  0001 C CNN
F 1 "+2.5V" H 6150 6200 30  0000 C CNN
F 2 "" H 6150 6100 60  0000 C CNN
F 3 "" H 6150 6100 60  0000 C CNN
	1    6150 6100
	1    0    0    -1  
$EndComp
$Comp
L R R9
U 1 1 54AF97D5
P 6150 6400
F 0 "R9" V 6230 6400 40  0000 C CNN
F 1 "10K" V 6157 6401 40  0000 C CNN
F 2 "SMD_Packages:SMD-0603_r" V 6080 6400 30  0001 C CNN
F 3 "" H 6150 6400 30  0000 C CNN
	1    6150 6400
	1    0    0    -1  
$EndComp
$Comp
L C C1
U 1 1 54AF9890
P 6150 6950
F 0 "C1" H 6150 7050 40  0000 L CNN
F 1 "0.1Uf" H 6156 6865 40  0000 L CNN
F 2 "SMD_Packages:SMD-0603_c" H 6188 6800 30  0001 C CNN
F 3 "" H 6150 6950 60  0000 C CNN
	1    6150 6950
	1    0    0    -1  
$EndComp
$Comp
L GND #PWR028
U 1 1 54AF98EC
P 6150 7200
F 0 "#PWR028" H 6150 7200 30  0001 C CNN
F 1 "GND" H 6150 7130 30  0001 C CNN
F 2 "" H 6150 7200 60  0000 C CNN
F 3 "" H 6150 7200 60  0000 C CNN
	1    6150 7200
	1    0    0    -1  
$EndComp
$Comp
L GND #PWR029
U 1 1 54AFA129
P 5050 6350
F 0 "#PWR029" H 5050 6350 30  0001 C CNN
F 1 "GND" H 5050 6280 30  0001 C CNN
F 2 "" H 5050 6350 60  0000 C CNN
F 3 "" H 5050 6350 60  0000 C CNN
	1    5050 6350
	1    0    0    -1  
$EndComp
NoConn ~ 4400 6500
NoConn ~ 4400 6600
NoConn ~ 4400 6700
NoConn ~ 4400 6800
NoConn ~ 4400 6900
NoConn ~ 4400 7000
$Comp
L SN74LVC2T45 U2
U 1 1 54AFA4F1
P 3000 5500
F 0 "U2" H 3000 5250 60  0000 C CNN
F 1 "SN74LVC2T45" H 3000 5750 60  0000 C CNN
F 2 "qustom_footprints:SN74LVC2T45" H 3000 5050 60  0001 C CNN
F 3 "" H 3000 5050 60  0000 C CNN
	1    3000 5500
	1    0    0    -1  
$EndComp
$Comp
L +3.3V #PWR030
U 1 1 54AFA5ED
P 3550 5050
F 0 "#PWR030" H 3550 5010 30  0001 C CNN
F 1 "+3.3V" H 3550 5160 30  0000 C CNN
F 2 "" H 3550 5050 60  0000 C CNN
F 3 "" H 3550 5050 60  0000 C CNN
	1    3550 5050
	1    0    0    -1  
$EndComp
$Comp
L R R5
U 1 1 54AFA601
P 2750 5150
F 0 "R5" V 2830 5150 40  0000 C CNN
F 1 "10k" V 2757 5151 40  0000 C CNN
F 2 "SMD_Packages:SMD-0603_r" V 2680 5150 30  0001 C CNN
F 3 "" H 2750 5150 30  0000 C CNN
	1    2750 5150
	0    1    1    0   
$EndComp
$Comp
L +2.5V #PWR031
U 1 1 54AFA95B
P 3700 5400
F 0 "#PWR031" H 3700 5350 20  0001 C CNN
F 1 "+2.5V" H 3700 5500 30  0000 C CNN
F 2 "" H 3700 5400 60  0000 C CNN
F 3 "" H 3700 5400 60  0000 C CNN
	1    3700 5400
	1    0    0    -1  
$EndComp
$Comp
L GND #PWR032
U 1 1 54AFAA57
P 2400 5700
F 0 "#PWR032" H 2400 5700 30  0001 C CNN
F 1 "GND" H 2400 5630 30  0001 C CNN
F 2 "" H 2400 5700 60  0000 C CNN
F 3 "" H 2400 5700 60  0000 C CNN
	1    2400 5700
	1    0    0    -1  
$EndComp
$Comp
L R R4
U 1 1 54AFAB3A
P 2250 5800
F 0 "R4" V 2330 5800 40  0000 C CNN
F 1 "10k" V 2257 5801 40  0000 C CNN
F 2 "SMD_Packages:SMD-0603_r" V 2180 5800 30  0001 C CNN
F 3 "" H 2250 5800 30  0000 C CNN
	1    2250 5800
	1    0    0    -1  
$EndComp
$Comp
L R R3
U 1 1 54AFAB85
P 2050 5800
F 0 "R3" V 2130 5800 40  0000 C CNN
F 1 "10k" V 2057 5801 40  0000 C CNN
F 2 "SMD_Packages:SMD-0603_r" V 1980 5800 30  0001 C CNN
F 3 "" H 2050 5800 30  0000 C CNN
	1    2050 5800
	1    0    0    -1  
$EndComp
$Comp
L GND #PWR033
U 1 1 54AFABBA
P 2250 6100
F 0 "#PWR033" H 2250 6100 30  0001 C CNN
F 1 "GND" H 2250 6030 30  0001 C CNN
F 2 "" H 2250 6100 60  0000 C CNN
F 3 "" H 2250 6100 60  0000 C CNN
	1    2250 6100
	1    0    0    -1  
$EndComp
$Comp
L GND #PWR034
U 1 1 54AFABE2
P 2050 6100
F 0 "#PWR034" H 2050 6100 30  0001 C CNN
F 1 "GND" H 2050 6030 30  0001 C CNN
F 2 "" H 2050 6100 60  0000 C CNN
F 3 "" H 2050 6100 60  0000 C CNN
	1    2050 6100
	1    0    0    -1  
$EndComp
$Comp
L R R6
U 1 1 54AFAC0A
P 3850 5550
F 0 "R6" V 3930 5550 40  0000 C CNN
F 1 "33" V 3857 5551 40  0000 C CNN
F 2 "SMD_Packages:SMD-0603_r" V 3780 5550 30  0001 C CNN
F 3 "" H 3850 5550 30  0000 C CNN
	1    3850 5550
	0    1    1    0   
$EndComp
$Comp
L R R7
U 1 1 54AFACC9
P 3850 5700
F 0 "R7" V 3930 5700 40  0000 C CNN
F 1 "33" V 3857 5701 40  0000 C CNN
F 2 "SMD_Packages:SMD-0603_r" V 3780 5700 30  0001 C CNN
F 3 "" H 3850 5700 30  0000 C CNN
	1    3850 5700
	0    1    1    0   
$EndComp
Text Label 2050 5450 2    60   ~ 0
GPIO_11/pXCLK_3V3
Text Label 2250 5550 2    60   ~ 0
GPIO_02/pPWRDN_3V3
Text Label 4100 5550 0    60   ~ 0
GPIO_11/pXCLK
Text Label 4100 5700 0    60   ~ 0
GPIO_02/pPWRDN
Text Label 2200 3150 0    60   ~ 0
I2C_SCL
Text Label 2200 3050 0    60   ~ 0
I2C_SDA
$Comp
L R R1
U 1 1 54AFC110
P 1800 2700
F 0 "R1" V 1880 2700 40  0000 C CNN
F 1 "3.3k" V 1807 2701 40  0000 C CNN
F 2 "SMD_Packages:SMD-0603_r" V 1730 2700 30  0001 C CNN
F 3 "" H 1800 2700 30  0000 C CNN
	1    1800 2700
	1    0    0    -1  
$EndComp
$Comp
L R R2
U 1 1 54AFC16F
P 2000 2700
F 0 "R2" V 2080 2700 40  0000 C CNN
F 1 "3.3k" V 2007 2701 40  0000 C CNN
F 2 "SMD_Packages:SMD-0603_r" V 1930 2700 30  0001 C CNN
F 3 "" H 2000 2700 30  0000 C CNN
	1    2000 2700
	1    0    0    -1  
$EndComp
$Comp
L +2.5V #PWR035
U 1 1 54AFC189
P 1900 2350
F 0 "#PWR035" H 1900 2300 20  0001 C CNN
F 1 "+2.5V" H 1900 2450 30  0000 C CNN
F 2 "" H 1900 2350 60  0000 C CNN
F 3 "" H 1900 2350 60  0000 C CNN
	1    1900 2350
	1    0    0    -1  
$EndComp
Wire Wire Line
	4050 1150 4050 1200
Wire Wire Line
	4200 2500 4200 2550
Wire Wire Line
	1450 1250 1750 1250
Wire Wire Line
	1450 1350 1750 1350
Wire Wire Line
	1750 1450 1450 1450
Wire Wire Line
	1450 1550 1750 1550
Wire Wire Line
	1450 1650 1750 1650
Wire Wire Line
	1450 1750 1750 1750
Wire Wire Line
	1450 1850 1750 1850
Wire Wire Line
	1650 1150 1750 1150
Wire Wire Line
	3950 1150 4050 1150
Wire Wire Line
	4200 1250 3950 1250
Wire Wire Line
	4200 1350 3950 1350
Wire Wire Line
	4200 1450 3950 1450
Wire Wire Line
	4200 1550 3950 1550
Wire Wire Line
	4200 1650 3950 1650
Wire Wire Line
	4200 1750 3950 1750
Wire Wire Line
	4200 1850 3950 1850
Wire Wire Line
	4200 1950 3950 1950
Wire Wire Line
	4200 1950 4200 2000
Wire Wire Line
	9850 1700 9700 1700
Wire Wire Line
	9700 1100 9700 1900
Wire Wire Line
	9700 1100 9100 1100
Wire Wire Line
	9300 1100 9300 1050
Connection ~ 9500 1100
Connection ~ 9300 1100
Wire Wire Line
	9700 1900 9850 1900
Connection ~ 9700 1700
Wire Wire Line
	9500 1550 9500 1500
Wire Wire Line
	9100 1500 9100 1550
Wire Wire Line
	9850 1800 8950 1800
Wire Wire Line
	8950 1800 8950 1550
Wire Wire Line
	8950 1550 8800 1550
Wire Wire Line
	8800 1550 8800 1500
Wire Wire Line
	8800 1950 8800 2000
Wire Wire Line
	9850 2000 9650 2000
Wire Wire Line
	9850 2100 9650 2100
Wire Wire Line
	9850 2200 9650 2200
Wire Wire Line
	9850 2300 9650 2300
Wire Wire Line
	9850 2400 9650 2400
Wire Wire Line
	9850 2500 9650 2500
Wire Wire Line
	9850 2600 9650 2600
Wire Wire Line
	9850 2700 9650 2700
Wire Wire Line
	9850 2800 9650 2800
Wire Wire Line
	9850 2900 9650 2900
Wire Wire Line
	9850 3000 9650 3000
Wire Wire Line
	9850 3100 9650 3100
Wire Wire Line
	9850 3200 9650 3200
Wire Wire Line
	9850 3300 9650 3300
Wire Wire Line
	9850 3400 9650 3400
Wire Wire Line
	9850 3500 9650 3500
Wire Wire Line
	9850 3800 9650 3800
Wire Wire Line
	9650 4300 9650 4350
Wire Wire Line
	10950 2800 11000 2800
Wire Wire Line
	11000 2800 11000 3400
Wire Wire Line
	10950 2900 11000 2900
Connection ~ 11000 2900
Wire Wire Line
	10950 3000 11000 3000
Connection ~ 11000 3000
Wire Wire Line
	10950 3100 11000 3100
Connection ~ 11000 3100
Wire Wire Line
	10950 3200 11000 3200
Connection ~ 11000 3200
Wire Wire Line
	10950 3300 11000 3300
Connection ~ 11000 3300
Wire Wire Line
	1650 1150 1650 1050
Wire Wire Line
	8300 4700 8300 4800
Wire Wire Line
	7900 4750 8650 4750
Wire Wire Line
	8650 4750 8650 4800
Connection ~ 8300 4750
Wire Wire Line
	8100 4800 8100 4750
Wire Wire Line
	7850 5300 7900 5300
Wire Wire Line
	7900 5300 7900 4750
Connection ~ 8100 4750
Wire Wire Line
	8300 5300 8100 5300
Wire Wire Line
	8100 5200 8100 5400
Wire Wire Line
	8100 5400 7850 5400
Connection ~ 8100 5300
Wire Wire Line
	8300 5300 8300 5350
Wire Wire Line
	8300 5850 8300 5950
Wire Wire Line
	7850 5500 7950 5500
Wire Wire Line
	7950 5900 7950 5950
Wire Wire Line
	8650 5200 8650 5250
Wire Wire Line
	6450 5250 6450 5300
Wire Wire Line
	6450 5700 6450 5750
Wire Wire Line
	6650 5650 6650 5400
Wire Wire Line
	6650 5400 6750 5400
Wire Wire Line
	6600 5500 6750 5500
Wire Wire Line
	6450 5300 6750 5300
Wire Wire Line
	6600 5500 6600 5300
Connection ~ 6600 5300
Wire Wire Line
	8050 3200 8050 3300
Wire Wire Line
	7650 3250 8400 3250
Wire Wire Line
	8400 3250 8400 3300
Connection ~ 8050 3250
Wire Wire Line
	7850 3300 7850 3250
Wire Wire Line
	7600 3800 7650 3800
Wire Wire Line
	7650 3800 7650 3250
Connection ~ 7850 3250
Wire Wire Line
	8050 3800 7850 3800
Wire Wire Line
	7850 3700 7850 3900
Wire Wire Line
	7850 3900 7600 3900
Connection ~ 7850 3800
Wire Wire Line
	8050 3800 8050 3850
Wire Wire Line
	8050 4350 8050 4450
Wire Wire Line
	7600 4000 7700 4000
Wire Wire Line
	7700 4400 7700 4450
Wire Wire Line
	8400 3700 8400 3750
Wire Wire Line
	6200 3750 6200 3800
Wire Wire Line
	6200 4200 6200 4250
Wire Wire Line
	6400 4150 6400 3900
Wire Wire Line
	6400 3900 6500 3900
Wire Wire Line
	6350 4000 6500 4000
Wire Wire Line
	6200 3800 6500 3800
Wire Wire Line
	6350 4000 6350 3800
Connection ~ 6350 3800
Wire Wire Line
	1600 6250 1600 6300
Wire Wire Line
	1600 6300 1650 6300
Wire Wire Line
	2150 6400 2400 6400
Wire Wire Line
	2400 6400 2400 6650
Wire Wire Line
	1650 6400 1550 6400
Wire Wire Line
	1650 6500 1550 6500
Wire Wire Line
	1650 6600 1550 6600
Wire Wire Line
	1650 6700 1550 6700
Wire Wire Line
	1650 6800 1550 6800
Wire Wire Line
	1650 6900 1550 6900
Wire Wire Line
	1650 7200 1550 7200
Wire Wire Line
	2150 6500 2550 6500
Wire Wire Line
	2150 6600 2550 6600
Wire Wire Line
	4900 6700 6150 6700
Wire Wire Line
	6150 6650 6150 6750
Connection ~ 6150 6700
Wire Wire Line
	6150 6100 6150 6150
Wire Wire Line
	6150 7150 6150 7200
Wire Wire Line
	4900 6500 5050 6500
Wire Wire Line
	4900 6800 5050 6800
Wire Wire Line
	4900 6900 5050 6900
Wire Wire Line
	4900 7100 5050 7100
Wire Wire Line
	4900 6300 5050 6300
Wire Wire Line
	5050 6300 5050 6350
Wire Wire Line
	2500 5150 2450 5150
Wire Wire Line
	2450 5150 2450 5350
Wire Wire Line
	3000 5150 3550 5150
Wire Wire Line
	3550 5050 3550 5350
Connection ~ 3550 5150
Wire Wire Line
	3550 5450 3700 5450
Wire Wire Line
	3700 5450 3700 5400
Wire Wire Line
	2450 5650 2400 5650
Wire Wire Line
	2400 5650 2400 5700
Wire Wire Line
	2250 5550 2450 5550
Wire Wire Line
	2450 5450 2050 5450
Wire Wire Line
	2050 5450 2050 5550
Wire Wire Line
	2250 6050 2250 6100
Wire Wire Line
	2050 6050 2050 6100
Wire Wire Line
	3550 5550 3600 5550
Wire Wire Line
	3550 5650 3550 5700
Wire Wire Line
	3550 5700 3600 5700
Wire Wire Line
	1800 2450 1800 2400
Wire Wire Line
	1800 2400 2000 2400
Wire Wire Line
	2000 2400 2000 2450
Wire Wire Line
	1900 2350 1900 2400
Connection ~ 1900 2400
Wire Wire Line
	1500 3050 2750 3050
Wire Wire Line
	1500 3150 2900 3150
Wire Wire Line
	1800 3050 1800 2950
Connection ~ 1800 3050
Wire Wire Line
	2000 2950 2000 3150
Connection ~ 2000 3150
$Comp
L +3.3V #PWR036
U 1 1 54AFF603
P 9800 4950
F 0 "#PWR036" H 9800 4910 30  0001 C CNN
F 1 "+3.3V" H 9800 5060 30  0000 C CNN
F 2 "" H 9800 4950 60  0000 C CNN
F 3 "" H 9800 4950 60  0000 C CNN
	1    9800 4950
	1    0    0    -1  
$EndComp
$Comp
L LED D1
U 1 1 54AFF638
P 9800 5250
F 0 "D1" H 9800 5350 50  0000 C CNN
F 1 "LED" H 9800 5150 50  0000 C CNN
F 2 "LEDs:LED-0603" H 9800 5250 60  0001 C CNN
F 3 "" H 9800 5250 60  0000 C CNN
	1    9800 5250
	0    1    1    0   
$EndComp
$Comp
L R R15
U 1 1 54AFF669
P 9800 5800
F 0 "R15" V 9880 5800 40  0000 C CNN
F 1 "330" V 9807 5801 40  0000 C CNN
F 2 "SMD_Packages:SMD-0603_r" V 9730 5800 30  0001 C CNN
F 3 "" H 9800 5800 30  0000 C CNN
	1    9800 5800
	1    0    0    -1  
$EndComp
$Comp
L GND #PWR037
U 1 1 54AFF6B4
P 9800 6100
F 0 "#PWR037" H 9800 6100 30  0001 C CNN
F 1 "GND" H 9800 6030 30  0001 C CNN
F 2 "" H 9800 6100 60  0000 C CNN
F 3 "" H 9800 6100 60  0000 C CNN
	1    9800 6100
	1    0    0    -1  
$EndComp
Wire Wire Line
	9800 4950 9800 5050
Wire Wire Line
	9800 5450 9800 5550
Wire Wire Line
	9800 6050 9800 6100
Wire Wire Line
	4400 7200 4300 7200
Wire Wire Line
	4400 7100 4300 7100
NoConn ~ 4400 6400
NoConn ~ 4400 6300
Text Label 1500 3050 2    60   ~ 0
GPIO_24/I2C_SDA
Text Label 1500 3150 2    60   ~ 0
GPIO_23/I2C_SCL
$Sheet
S 2900 2800 650  700 
U 54B308D6
F0 "iNEMO" 50
F1 "iNEMO.sch" 50
F2 "iNEMO_SDA" B L 2900 3000 60 
F3 "iNEMO_SCL" I L 2900 3150 60 
F4 "iNEMO_VDD" I L 2900 3300 60 
F5 "iNEMO_GND" I L 2900 3400 60 
$EndSheet
Wire Wire Line
	2750 3050 2750 3000
Wire Wire Line
	2750 3000 2900 3000
$Comp
L GND #PWR038
U 1 1 54B33092
P 2700 3500
F 0 "#PWR038" H 2700 3500 30  0001 C CNN
F 1 "GND" H 2700 3430 30  0001 C CNN
F 2 "" H 2700 3500 60  0000 C CNN
F 3 "" H 2700 3500 60  0000 C CNN
	1    2700 3500
	1    0    0    -1  
$EndComp
Wire Wire Line
	2700 3500 2700 3400
Wire Wire Line
	2700 3400 2900 3400
$Comp
L +3.3V #PWR039
U 1 1 54B3331D
P 2700 3250
F 0 "#PWR039" H 2700 3210 30  0001 C CNN
F 1 "+3.3V" H 2700 3360 30  0000 C CNN
F 2 "" H 2700 3250 60  0000 C CNN
F 3 "" H 2700 3250 60  0000 C CNN
	1    2700 3250
	1    0    0    -1  
$EndComp
Wire Wire Line
	2700 3300 2900 3300
Wire Wire Line
	2700 3300 2700 3250
Text Label 5150 6400 0    60   ~ 0
GPIO_28
Wire Wire Line
	4900 6400 5150 6400
Text Label 5150 6600 0    60   ~ 0
GPIO_31
Wire Wire Line
	4900 6600 5150 6600
Text Label 5200 7000 0    60   ~ 0
GPIO_25
Wire Wire Line
	4900 7000 5200 7000
Text Label 5200 7200 0    60   ~ 0
GPIO_22
Wire Wire Line
	4900 7200 5200 7200
$Sheet
S 4100 3650 700  850 
U 54B35513
F0 "LCD" 50
F1 "LCD.sch" 50
F2 "iNEMO_SL" B L 4100 3800 60 
F3 "iNEMO_SCL" I L 4100 3900 60 
F4 "iNEMO_A0" I L 4100 4000 60 
F5 "iNEMO_nRST" I L 4100 4100 60 
F6 "iNEMO_nCS1" I L 4100 4200 60 
F7 "iNEMO_3V" I L 4100 4300 60 
F8 "iNEMO_GND" I L 4100 4400 60 
$EndSheet
Text Label 1450 7000 2    60   ~ 0
GPIO_17
Wire Wire Line
	1450 7000 1650 7000
Text Label 3750 3800 2    60   ~ 0
GPIO_17
Text Label 3750 3900 2    60   ~ 0
GPIO_28
Text Label 3750 4000 2    60   ~ 0
GPIO_31
Text Label 3750 4100 2    60   ~ 0
GPIO_25
Text Label 3750 4200 2    60   ~ 0
GPIO_22
$Comp
L +3.3V #PWR040
U 1 1 54B38D68
P 3750 4300
F 0 "#PWR040" H 3750 4260 30  0001 C CNN
F 1 "+3.3V" H 3750 4410 30  0000 C CNN
F 2 "" H 3750 4300 60  0000 C CNN
F 3 "" H 3750 4300 60  0000 C CNN
	1    3750 4300
	0    -1   -1   0   
$EndComp
$Comp
L GND #PWR041
U 1 1 54B38D77
P 3750 4400
F 0 "#PWR041" H 3750 4400 30  0001 C CNN
F 1 "GND" H 3750 4330 30  0001 C CNN
F 2 "" H 3750 4400 60  0000 C CNN
F 3 "" H 3750 4400 60  0000 C CNN
	1    3750 4400
	0    1    1    0   
$EndComp
Wire Wire Line
	3750 3800 4100 3800
Wire Wire Line
	4100 3900 3750 3900
Wire Wire Line
	3750 4000 4100 4000
Wire Wire Line
	4100 4100 3750 4100
Wire Wire Line
	3750 4200 4100 4200
Wire Wire Line
	4100 4300 3750 4300
Wire Wire Line
	3750 4400 4100 4400
$EndSCHEMATC
