parsing  sam_board.xml,,,order,
100k,SM0402_r,1,3,
470k,SM0402_r,3,10,
AT91SAM9N12,lfbga217-std,1,2,
27,SM0402_r,4,25,
10u/100mA,c_0603,3,20,
1.5k,SM0402_r,2,50,
FUSE,N/A,2,,
100p,SM0402_c,1,10,
4.7u,SM0603_Capa,5,25,
450k,SM0402_r,1,3,
100n/0.1uF,SM0402_c,43,250,
10k,SM0402_r,1,10,
10u,SM0603_Capa,2,10,
S34ML04G2,TSOP48,1,2,
APX823,SOT23-5,1,2,
1,SM0402_r,3,10,
SW_PUSH,S_JUMPER_2,1,1,1.14002.1010000CT-ND
USB-A,N/A,1,2,
16MHz,TSX-3225,1,2,
PAM2321,DFN10-3X3,1,2,
AT45DB161E,SO8E,1,2,
0,SM0402_r,2,50,
AP7333-SA,SOT23,1,2,
32.768kHz,ABS10,1,2,
USB-MICRO,MICRO-B_USB,1,2,
1u,SM0603_Capa,5,50,
W9751G6KB,WBGA-84,1,2,
1.0uH/1.5A,VLS201612E,1,2,
15p,SM0402_c,4,25,
TLV71210,SOT23-5,1,2,
parsing  rocket_booster.xml,,,,
TPS79301,SMD_Packages:SOT-23-6,2,4,
NHD-C12832A1Z,qustom_footprints:NHD-C12832A1Z,1,,
0.47uF,SMD_Packages:SMD-0603_c,5,50,
15k,SMD_Packages:SMD-0603_r,1,10,
10k,SMD_Packages:SMD-0603_r,6,50,
3.3k,SMD_Packages:SMD-0603_r,2,10,
LSM9DS1,qustom_footprints:LSM9DS1TR,1,2,
MT9D111_HEADER,Pin_Headers:Pin_Header_Straight_2x10,1,,
GS3,Connect:GS3,2,,
SN74LVC2T45,qustom_footprints:SN74LVC2T45,1,2,
1uF,SMD_Packages:SMD-0603_c,3,,
30.1k,SMD_Packages:SMD-0603_r,2,50,
"10nF/0.01uF/10,000pF",SMD_Packages:SMD-0603_c,1,10,
22pF,SMD_Packages:SMD-0603_c,2,10,
39k,SMD_Packages:SMD-0603_r,1,50,
LED,LEDs:LED-0603,1,2,
0.1uF,SMD_Packages:SMD-0603_c,6,,
CONN_02X10,Pin_Headers:Pin_Header_Straight_2x10,2,,
100nF,SMD_Packages:SMD-0603_c,4,,
MT9D111_FLEX_HEADER,qustom_footprints:WP3-S024VA1-R500,1,2,
10uF,SMD_Packages:SMD-0603_c,1,,
2.2uF,SMD_Packages:SMD-0603_c,4,20,
33,SMD_Packages:SMD-0603_r,2,10,
330,SMD_Packages:SMD-0603_r,1,1,
