(module WP3-S024VA1-R500 (layer F.Cu) (tedit 54B33774)
  (fp_text reference WP3-S024VA1-R500 (at 0.55 -2.85) (layer F.SilkS)
    (effects (font (size 0.5 0.5) (thickness 0.125)))
  )
  (fp_text value VAL** (at 0.25 2.75) (layer F.SilkS)
    (effects (font (size 0.5 0.5) (thickness 0.125)))
  )
  (fp_line (start -3.55 -2.25) (end -3.55 2.15) (layer F.SilkS) (width 0.15))
  (fp_line (start -3.55 2.15) (end 3.55 2.15) (layer F.SilkS) (width 0.15))
  (fp_line (start 3.55 2.15) (end 3.55 -2.25) (layer F.SilkS) (width 0.15))
  (fp_line (start -3.55 -2.25) (end 3.55 -2.25) (layer F.SilkS) (width 0.15))
  (pad 1 smd rect (at -1.75 -1.54) (size 0.22 0.6) (layers F.Cu F.Paste F.Mask))
  (pad 2 smd rect (at -1.35 -1.55) (size 0.22 0.6) (layers F.Cu F.Paste F.Mask))
  (pad 3 smd rect (at -0.95 -1.55) (size 0.22 0.6) (layers F.Cu F.Paste F.Mask))
  (pad 4 smd rect (at -0.55 -1.55) (size 0.22 0.6) (layers F.Cu F.Paste F.Mask))
  (pad 5 smd rect (at -0.15 -1.55) (size 0.22 0.6) (layers F.Cu F.Paste F.Mask))
  (pad 6 smd rect (at 0.25 -1.55) (size 0.22 0.6) (layers F.Cu F.Paste F.Mask))
  (pad 7 smd rect (at 0.65 -1.55) (size 0.22 0.6) (layers F.Cu F.Paste F.Mask))
  (pad 8 smd rect (at 1.05 -1.55) (size 0.22 0.6) (layers F.Cu F.Paste F.Mask))
  (pad 9 smd rect (at 1.45 -1.55) (size 0.22 0.6) (layers F.Cu F.Paste F.Mask))
  (pad 10 smd rect (at 1.85 -1.55) (size 0.22 0.6) (layers F.Cu F.Paste F.Mask))
  (pad 11 smd rect (at -1.75 1.45) (size 0.22 0.6) (layers F.Cu F.Paste F.Mask))
  (pad 12 smd rect (at -1.35 1.45) (size 0.22 0.6) (layers F.Cu F.Paste F.Mask))
  (pad 13 smd rect (at -0.95 1.45) (size 0.22 0.6) (layers F.Cu F.Paste F.Mask))
  (pad 14 smd rect (at -0.55 1.45) (size 0.22 0.6) (layers F.Cu F.Paste F.Mask))
  (pad 15 smd rect (at -0.15 1.45) (size 0.22 0.6) (layers F.Cu F.Paste F.Mask))
  (pad 16 smd rect (at 0.25 1.45) (size 0.22 0.6) (layers F.Cu F.Paste F.Mask))
  (pad 17 smd rect (at 0.65 1.45) (size 0.22 0.6) (layers F.Cu F.Paste F.Mask))
  (pad 18 smd rect (at 1.05 1.45) (size 0.22 0.6) (layers F.Cu F.Paste F.Mask))
  (pad 19 smd rect (at 1.45 1.45) (size 0.22 0.6) (layers F.Cu F.Paste F.Mask))
  (pad 20 smd rect (at 1.85 1.45) (size 0.22 0.6) (layers F.Cu F.Paste F.Mask))
)
