(export (version D)
  (design
    (source C:/cygwin/home/liangste/quad-vr-copter/boards/bl-ctrl_1.2/bl-ctrl_1.2.sch)
    (date "1/11/2015 11:13:16 AM")
    (tool "eeschema (2013-07-07 BZR 4022)-stable"))
  (components
    (comp (ref IC1)
      (value ATMEGA8-AI)
      (footprint TQFP32)
      (libsource (lib atmel) (part ATMEGA8-AI))
      (sheetpath (names /) (tstamps /))
      (tstamp 54B0A5F7))
    (comp (ref R3)
      (value 10k)
      (libsource (lib device) (part R))
      (sheetpath (names /) (tstamps /))
      (tstamp 54B0A7C7))
    (comp (ref C7)
      (value 0.1uF)
      (libsource (lib device) (part C))
      (sheetpath (names /) (tstamps /))
      (tstamp 54B0A820))
    (comp (ref R1)
      (value 10k)
      (libsource (lib device) (part R))
      (sheetpath (names /) (tstamps /))
      (tstamp 54B0A8CC))
    (comp (ref C4)
      (value 0.1uF)
      (libsource (lib device) (part C))
      (sheetpath (names /) (tstamps /))
      (tstamp 54B0A908))
    (comp (ref R10)
      (value 680)
      (libsource (lib device) (part R))
      (sheetpath (names /) (tstamps /))
      (tstamp 54B0AEFB))
    (comp (ref C17)
      (value 0.1uF)
      (libsource (lib device) (part C))
      (sheetpath (names /) (tstamps /))
      (tstamp 54B0AF6E))
    (comp (ref R16)
      (value 18k)
      (libsource (lib device) (part R))
      (sheetpath (names /) (tstamps /))
      (tstamp 54B0B0F6))
    (comp (ref R17)
      (value 1k)
      (libsource (lib device) (part R))
      (sheetpath (names /) (tstamps /))
      (tstamp 54B0B1A1))
    (comp (ref C21)
      (value 0.1uF)
      (libsource (lib device) (part C))
      (sheetpath (names /) (tstamps /))
      (tstamp 54B0B27B))
    (comp (ref D2)
      (value LED)
      (libsource (lib device) (part LED))
      (sheetpath (names /) (tstamps /))
      (tstamp 54B0BAAC))
    (comp (ref R12)
      (value 1k)
      (libsource (lib device) (part R))
      (sheetpath (names /) (tstamps /))
      (tstamp 54B0BB07))
    (comp (ref D1)
      (value LED)
      (libsource (lib device) (part LED))
      (sheetpath (names /) (tstamps /))
      (tstamp 54B0BD47))
    (comp (ref R11)
      (value 1k)
      (libsource (lib device) (part R))
      (sheetpath (names /) (tstamps /))
      (tstamp 54B0BD84))
    (comp (ref U1)
      (value uA78L05)
      (libsource (lib bl-ctrl_1.2-cache) (part uA78L05))
      (sheetpath (names /) (tstamps /))
      (tstamp 54B0C0A2))
    (comp (ref C3)
      (value 330uF)
      (libsource (lib bl-ctrl_1.2-cache) (part CP2))
      (sheetpath (names /) (tstamps /))
      (tstamp 54B0C1AB))
    (comp (ref C16)
      (value 10uF)
      (libsource (lib bl-ctrl_1.2-cache) (part CP2))
      (sheetpath (names /) (tstamps /))
      (tstamp 54B0C1FC))
    (comp (ref C1)
      (value 0.1uF)
      (footprint 0603)
      (libsource (lib device) (part C))
      (sheetpath (names /) (tstamps /))
      (tstamp 54B0C2BF))
    (comp (ref C2)
      (value 0.1uF)
      (footprint 0603)
      (libsource (lib device) (part C))
      (sheetpath (names /) (tstamps /))
      (tstamp 54B0C34C))
    (comp (ref C5)
      (value 0.1uF)
      (libsource (lib device) (part C))
      (sheetpath (names /) (tstamps /))
      (tstamp 54B0C401))
    (comp (ref C6)
      (value 0.1uF)
      (libsource (lib device) (part C))
      (sheetpath (names /) (tstamps /))
      (tstamp 54B0C43B))
    (comp (ref C8)
      (value 0.1uF)
      (libsource (lib device) (part C))
      (sheetpath (names /) (tstamps /))
      (tstamp 54B0C472))
    (comp (ref C9)
      (value 0.1uF)
      (libsource (lib device) (part C))
      (sheetpath (names /) (tstamps /))
      (tstamp 54B0C4A4))
    (comp (ref C10)
      (value 0.1uF)
      (libsource (lib device) (part C))
      (sheetpath (names /) (tstamps /))
      (tstamp 54B0C4D5))
    (comp (ref C11)
      (value 0.1uF)
      (libsource (lib device) (part C))
      (sheetpath (names /) (tstamps /))
      (tstamp 54B0C5AA))
    (comp (ref C12)
      (value 0.1uF)
      (libsource (lib device) (part C))
      (sheetpath (names /) (tstamps /))
      (tstamp 54B0C5DD))
    (comp (ref C13)
      (value 0.1uF)
      (libsource (lib device) (part C))
      (sheetpath (names /) (tstamps /))
      (tstamp 54B0C9E2))
    (comp (ref C14)
      (value 0.1uF)
      (libsource (lib device) (part C))
      (sheetpath (names /) (tstamps /))
      (tstamp 54B0CB32))
    (comp (ref C15)
      (value 0.1uF)
      (libsource (lib device) (part C))
      (sheetpath (names /) (tstamps /))
      (tstamp 54B0CBD0))
    (comp (ref GS1)
      (value GS3)
      (footprint GS3)
      (libsource (lib conn) (part GS3))
      (sheetpath (names /) (tstamps /))
      (tstamp 54B0D8A8))
    (comp (ref P1)
      (value CONN_01X01)
      (libsource (lib bl-ctrl_1.2-cache) (part CONN_01X01))
      (sheetpath (names /) (tstamps /))
      (tstamp 54B0DCD7))
    (comp (ref P2)
      (value HE10-10)
      (libsource (lib conn) (part HE10-10))
      (sheetpath (names /) (tstamps /))
      (tstamp 54B0DFD3))
    (comp (ref R2)
      (value 4.7k)
      (libsource (lib device) (part R))
      (sheetpath (names /) (tstamps /))
      (tstamp 54B0E04C))
    (comp (ref R4)
      (value 4.7K)
      (libsource (lib device) (part R))
      (sheetpath (names /) (tstamps /))
      (tstamp 54B0E75A))
    (comp (ref C18)
      (value 0.1uF)
      (libsource (lib device) (part C))
      (sheetpath (names /) (tstamps /))
      (tstamp 54B0EDA6))
    (comp (ref C19)
      (value 0.1uF)
      (libsource (lib device) (part C))
      (sheetpath (names /) (tstamps /))
      (tstamp 54B0EE25))
    (comp (ref C20)
      (value 0.1uF)
      (libsource (lib device) (part C))
      (sheetpath (names /) (tstamps /))
      (tstamp 54B0EE6D))
    (comp (ref R5)
      (value 4.7K)
      (libsource (lib device) (part R))
      (sheetpath (names /) (tstamps /))
      (tstamp 54B0FB9B))
    (comp (ref R6)
      (value 4.7K)
      (libsource (lib device) (part R))
      (sheetpath (names /) (tstamps /))
      (tstamp 54B0FC05))
    (comp (ref R13)
      (value 4.7K)
      (libsource (lib device) (part R))
      (sheetpath (names /) (tstamps /))
      (tstamp 54B0FC47))
    (comp (ref R14)
      (value 4.7K)
      (libsource (lib device) (part R))
      (sheetpath (names /) (tstamps /))
      (tstamp 54B0FCD3))
    (comp (ref R15)
      (value 4.7K)
      (libsource (lib device) (part R))
      (sheetpath (names /) (tstamps /))
      (tstamp 54B0FD27))
    (comp (ref R7)
      (value 4.7K)
      (libsource (lib device) (part R))
      (sheetpath (names /) (tstamps /))
      (tstamp 54B0FF51))
    (comp (ref R8)
      (value 4.7K)
      (libsource (lib device) (part R))
      (sheetpath (names /) (tstamps /))
      (tstamp 54B0FFA2))
    (comp (ref R9)
      (value 4.7K)
      (libsource (lib device) (part R))
      (sheetpath (names /) (tstamps /))
      (tstamp 54B10042))
    (comp (ref P3)
      (value CONN_01X01)
      (libsource (lib bl-ctrl_1.2-cache) (part CONN_01X01))
      (sheetpath (names /) (tstamps /))
      (tstamp 54B115DA))
    (comp (ref P4)
      (value CONN_01X01)
      (libsource (lib bl-ctrl_1.2-cache) (part CONN_01X01))
      (sheetpath (names /) (tstamps /))
      (tstamp 54B116E4))
    (comp (ref P5)
      (value CONN_01X01)
      (libsource (lib bl-ctrl_1.2-cache) (part CONN_01X01))
      (sheetpath (names /) (tstamps /))
      (tstamp 54B11737))
    (comp (ref P6)
      (value CONN_01X01)
      (libsource (lib bl-ctrl_1.2-cache) (part CONN_01X01))
      (sheetpath (names /) (tstamps /))
      (tstamp 54B11783))
    (comp (ref P7)
      (value CONN_01X01)
      (libsource (lib bl-ctrl_1.2-cache) (part CONN_01X01))
      (sheetpath (names /) (tstamps /))
      (tstamp 54B117CA))
    (comp (ref P8)
      (value CONN_01X01)
      (libsource (lib bl-ctrl_1.2-cache) (part CONN_01X01))
      (sheetpath (names /) (tstamps /))
      (tstamp 54B11854))
    (comp (ref Q4)
      (value PDTC143ET)
      (libsource (lib device) (part NPN))
      (sheetpath (names /) (tstamps /))
      (tstamp 54B123F2))
    (comp (ref Q5)
      (value IRFR5305)
      (libsource (lib device) (part MOSFET_P))
      (sheetpath (names /) (tstamps /))
      (tstamp 54B12463))
    (comp (ref Q6)
      (value IRFR1205)
      (libsource (lib device) (part MOSFET_N))
      (sheetpath (names /) (tstamps /))
      (tstamp 54B12496))
    (comp (ref R20)
      (value 1k)
      (libsource (lib device) (part R))
      (sheetpath (names /) (tstamps /))
      (tstamp 54B126C5))
    (comp (ref R24)
      (value 470)
      (libsource (lib device) (part R))
      (sheetpath (names /) (tstamps /))
      (tstamp 54B1273B))
    (comp (ref R25)
      (value 18k)
      (libsource (lib device) (part R))
      (sheetpath (names /) (tstamps /))
      (tstamp 54B127D5))
    (comp (ref R23)
      (value 100)
      (libsource (lib device) (part R))
      (sheetpath (names /) (tstamps /))
      (tstamp 54B1291A))
    (comp (ref Q7)
      (value PDTC143ET)
      (libsource (lib device) (part NPN))
      (sheetpath (names /) (tstamps /))
      (tstamp 54B155F4))
    (comp (ref Q8)
      (value IRFR5305)
      (libsource (lib device) (part MOSFET_P))
      (sheetpath (names /) (tstamps /))
      (tstamp 54B155FA))
    (comp (ref Q9)
      (value IRFR1205)
      (libsource (lib device) (part MOSFET_N))
      (sheetpath (names /) (tstamps /))
      (tstamp 54B15600))
    (comp (ref R26)
      (value 1k)
      (libsource (lib device) (part R))
      (sheetpath (names /) (tstamps /))
      (tstamp 54B15606))
    (comp (ref R28)
      (value 470)
      (libsource (lib device) (part R))
      (sheetpath (names /) (tstamps /))
      (tstamp 54B1560C))
    (comp (ref R29)
      (value 18k)
      (libsource (lib device) (part R))
      (sheetpath (names /) (tstamps /))
      (tstamp 54B15612))
    (comp (ref R27)
      (value 100)
      (libsource (lib device) (part R))
      (sheetpath (names /) (tstamps /))
      (tstamp 54B15624))
    (comp (ref Q1)
      (value PDTC143ET)
      (libsource (lib device) (part NPN))
      (sheetpath (names /) (tstamps /))
      (tstamp 54B158B3))
    (comp (ref Q2)
      (value IRFR5305)
      (libsource (lib device) (part MOSFET_P))
      (sheetpath (names /) (tstamps /))
      (tstamp 54B158B9))
    (comp (ref Q3)
      (value IRFR1205)
      (libsource (lib device) (part MOSFET_N))
      (sheetpath (names /) (tstamps /))
      (tstamp 54B158BF))
    (comp (ref R18)
      (value 1k)
      (libsource (lib device) (part R))
      (sheetpath (names /) (tstamps /))
      (tstamp 54B158C5))
    (comp (ref R21)
      (value 470)
      (libsource (lib device) (part R))
      (sheetpath (names /) (tstamps /))
      (tstamp 54B158CB))
    (comp (ref R22)
      (value 18k)
      (libsource (lib device) (part R))
      (sheetpath (names /) (tstamps /))
      (tstamp 54B158D1))
    (comp (ref R19)
      (value 100)
      (libsource (lib device) (part R))
      (sheetpath (names /) (tstamps /))
      (tstamp 54B158E3))
    (comp (ref P10)
      (value CONN_1)
      (libsource (lib conn) (part CONN_1))
      (sheetpath (names /) (tstamps /))
      (tstamp 54B2CB27))
    (comp (ref P9)
      (value CONN_1)
      (libsource (lib conn) (part CONN_1))
      (sheetpath (names /) (tstamps /))
      (tstamp 54B2CCE9))
    (comp (ref P11)
      (value CONN_1)
      (libsource (lib conn) (part CONN_1))
      (sheetpath (names /) (tstamps /))
      (tstamp 54B2CCEF)))
  (libparts
    (libpart (lib device) (part C)
      (description "Condensateur non polarise")
      (footprints
        (fp SM*)
        (fp C?)
        (fp C1-1))
      (fields
        (field (name Reference) C)
        (field (name Value) C)
        (field (name Footprint) ~)
        (field (name Datasheet) ~))
      (pins
        (pin (num 1) (name ~) (type passive))
        (pin (num 2) (name ~) (type passive))))
    (libpart (lib device) (part LED)
      (footprints
        (fp LED-3MM)
        (fp LED-5MM)
        (fp LED-10MM)
        (fp LED-0603)
        (fp LED-0805)
        (fp LED-1206)
        (fp LEDV))
      (fields
        (field (name Reference) D)
        (field (name Value) LED)
        (field (name Footprint) ~)
        (field (name Datasheet) ~))
      (pins
        (pin (num 1) (name A) (type passive))
        (pin (num 2) (name K) (type passive))))
    (libpart (lib device) (part MOS_N)
      (docs transistors/mos/*.*)
      (fields
        (field (name Reference) Q)
        (field (name Value) MOS_N)
        (field (name Footprint) ~)
        (field (name Datasheet) ~))
      (pins
        (pin (num D) (name D) (type passive))
        (pin (num G) (name G) (type input))
        (pin (num S) (name S) (type passive))))
    (libpart (lib device) (part MOS_P)
      (docs transistors/mos/*.*)
      (fields
        (field (name Reference) Q)
        (field (name Value) MOS_P)
        (field (name Footprint) ~)
        (field (name Datasheet) ~))
      (pins
        (pin (num D) (name D) (type passive))
        (pin (num G) (name G) (type input))
        (pin (num S) (name S) (type passive))))
    (libpart (lib device) (part NPN)
      (docs transistors/bipolar/*.*)
      (fields
        (field (name Reference) Q)
        (field (name Value) NPN)
        (field (name Footprint) ~)
        (field (name Datasheet) ~))
      (pins
        (pin (num 1) (name E) (type passive))
        (pin (num 2) (name B) (type input))
        (pin (num 3) (name C) (type passive))))
    (libpart (lib device) (part R)
      (description Resistance)
      (footprints
        (fp R?)
        (fp SM0603)
        (fp SM0805)
        (fp R?-*)
        (fp SM1206))
      (fields
        (field (name Reference) R)
        (field (name Value) R)
        (field (name Footprint) ~)
        (field (name Datasheet) ~))
      (pins
        (pin (num 1) (name ~) (type passive))
        (pin (num 2) (name ~) (type passive))))
    (libpart (lib conn) (part CONN_1)
      (description "1 pin")
      (fields
        (field (name Reference) P)
        (field (name Value) CONN_1))
      (pins
        (pin (num 1) (name 1) (type passive))))
    (libpart (lib conn) (part GS3)
      (fields
        (field (name Reference) GS)
        (field (name Value) GS3))
      (pins
        (pin (num 1) (name G1) (type passive))
        (pin (num 2) (name G2) (type passive))
        (pin (num 3) (name G3) (type passive))))
    (libpart (lib conn) (part HE10-10)
      (fields
        (field (name Reference) P)
        (field (name Value) HE10-10))
      (pins
        (pin (num 1) (name 1) (type passive))
        (pin (num 2) (name 2) (type passive))
        (pin (num 3) (name 3) (type passive))
        (pin (num 4) (name 4) (type passive))
        (pin (num 5) (name 5) (type passive))
        (pin (num 6) (name 6) (type passive))
        (pin (num 7) (name 7) (type passive))
        (pin (num 8) (name 8) (type passive))
        (pin (num 9) (name 9) (type passive))
        (pin (num 10) (name 10) (type passive))))
    (libpart (lib atmel) (part ATMEGA8-AI)
      (description "ATMEGA8, TQFP32, 8k Flash, 1k SRAM, 512B EEPROM")
      (docs http://www.atmel.com/dyn/resources/prod_documents/doc2486.pdf)
      (footprints
        (fp TQFP32))
      (fields
        (field (name Reference) IC)
        (field (name Value) ATMEGA8-AI)
        (field (name Footprint) TQFP32))
      (pins
        (pin (num 1) (name "(INT1)PD3") (type BiDi))
        (pin (num 2) (name "(XCK/T0)PD4") (type BiDi))
        (pin (num 3) (name GND) (type power_in))
        (pin (num 4) (name VCC) (type power_in))
        (pin (num 5) (name GND) (type power_in))
        (pin (num 6) (name VCC) (type power_in))
        (pin (num 7) (name "PB6(XTAL1/TOSC1)") (type BiDi))
        (pin (num 8) (name "PB7(XTAL2/TOSC2)") (type BiDi))
        (pin (num 9) (name "(T1)PD5") (type BiDi))
        (pin (num 10) (name "(AIN0)PD6") (type BiDi))
        (pin (num 11) (name "(AIN1)PD7") (type BiDi))
        (pin (num 12) (name "(ICP)PB0") (type BiDi))
        (pin (num 13) (name "(OC1A)PB1") (type BiDi))
        (pin (num 14) (name "(~SS~/OC1B)PB2") (type BiDi))
        (pin (num 15) (name "(MOSI/OC2)PB3") (type BiDi))
        (pin (num 16) (name "(MISO)PB4") (type BiDi))
        (pin (num 17) (name "(SCK)PB5") (type BiDi))
        (pin (num 18) (name AVCC) (type power_in))
        (pin (num 19) (name ADC6) (type BiDi))
        (pin (num 20) (name AREF) (type BiDi))
        (pin (num 21) (name AGND) (type power_in))
        (pin (num 22) (name ADC7) (type BiDi))
        (pin (num 23) (name "(ADC0)PC0") (type BiDi))
        (pin (num 24) (name "(ADC1)PC1") (type BiDi))
        (pin (num 25) (name "(ADC2)PC2") (type BiDi))
        (pin (num 26) (name "(ADC3)PC3") (type BiDi))
        (pin (num 27) (name "(ADC4/SDA)PC4") (type BiDi))
        (pin (num 28) (name "(ADC5/SCL)PC5") (type BiDi))
        (pin (num 29) (name "PC6(~RESET~)") (type BiDi))
        (pin (num 30) (name "(RXD)PD0") (type BiDi))
        (pin (num 31) (name "(TXD)PD1") (type BiDi))
        (pin (num 32) (name "(INT0)PD2") (type BiDi))))
    (libpart (lib bl-ctrl_1.2-cache) (part CONN_01X01)
      (footprints
        (fp Pin_Header_Straight_1X01)
        (fp Pin_Header_Angled_1X01)
        (fp Socket_Strip_Straight_1X01)
        (fp Socket_Strip_Angled_1X01))
      (fields
        (field (name Reference) P)
        (field (name Value) CONN_01X01)
        (field (name Footprint) ~)
        (field (name Datasheet) ~))
      (pins
        (pin (num 1) (name P1) (type passive))))
    (libpart (lib bl-ctrl_1.2-cache) (part CP2)
      (footprints
        (fp SM*)
        (fp C?)
        (fp C1-1))
      (fields
        (field (name Reference) C)
        (field (name Value) CP2)
        (field (name Footprint) ~)
        (field (name Datasheet) ~))
      (pins
        (pin (num 1) (name ~) (type passive))
        (pin (num 2) (name ~) (type passive))))
    (libpart (lib bl-ctrl_1.2-cache) (part uA78L05)
      (fields
        (field (name Reference) U)
        (field (name Value) uA78L05)
        (field (name Footprint) ~)
        (field (name Datasheet) ~))
      (pins
        (pin (num ~) (name COMMON) (type input)))))
  (libraries
    (library (logical device)
      (uri "C:\\Program Files (x86)\\KiCad\\share\\library\\device.lib"))
    (library (logical bl-ctrl_1.2-cache)
      (uri C:\cygwin\home\liangste\quad-vr-copter\boards\bl-ctrl_1.2\bl-ctrl_1.2-cache.lib))
    (library (logical conn)
      (uri "C:\\Program Files (x86)\\KiCad\\share\\library\\conn.lib"))
    (library (logical atmel)
      (uri "C:\\Program Files (x86)\\KiCad\\share\\library\\atmel.lib")))
  (nets
    (net (code 1) (name /PWM)
      (node (ref P2) (pin 4))
      (node (ref P5) (pin 1))
      (node (ref IC1) (pin 12)))
    (net (code 2) (name /SDA)
      (node (ref P2) (pin 9))
      (node (ref IC1) (pin 16))
      (node (ref P4) (pin 1))
      (node (ref IC1) (pin 27)))
    (net (code 3) (name /SCL)
      (node (ref P2) (pin 7))
      (node (ref IC1) (pin 28))
      (node (ref IC1) (pin 17))
      (node (ref P3) (pin 1)))
    (net (code 4) (name /NULL)
      (node (ref IC1) (pin 10))
      (node (ref R13) (pin 1))
      (node (ref R14) (pin 1))
      (node (ref R15) (pin 1)))
    (net (code 5) (name /NULL_B)
      (node (ref C19) (pin 1))
      (node (ref R5) (pin 1))
      (node (ref IC1) (pin 24))
      (node (ref R14) (pin 2))
      (node (ref R8) (pin 2)))
    (net (code 6) (name "")
      (node (ref Q4) (pin 3))
      (node (ref Q5) (pin G))
      (node (ref R24) (pin 1)))
    (net (code 7) (name "")
      (node (ref Q4) (pin 2))
      (node (ref R20) (pin 1)))
    (net (code 8) (name GND)
      (node (ref C1) (pin 2))
      (node (ref C3) (pin 2))
      (node (ref C16) (pin 2))
      (node (ref C21) (pin 2))
      (node (ref R17) (pin 2))
      (node (ref Q9) (pin S))
      (node (ref R29) (pin 1))
      (node (ref R25) (pin 1))
      (node (ref R10) (pin 1))
      (node (ref C7) (pin 2))
      (node (ref C4) (pin 2))
      (node (ref R11) (pin 1))
      (node (ref C17) (pin 2))
      (node (ref Q7) (pin 1))
      (node (ref C8) (pin 2))
      (node (ref C12) (pin 2))
      (node (ref C15) (pin 2))
      (node (ref C14) (pin 2))
      (node (ref C13) (pin 2))
      (node (ref C11) (pin 2))
      (node (ref C10) (pin 2))
      (node (ref C9) (pin 2))
      (node (ref GS1) (pin 2))
      (node (ref C6) (pin 2))
      (node (ref C5) (pin 2))
      (node (ref C2) (pin 2))
      (node (ref IC1) (pin 20))
      (node (ref IC1) (pin 5))
      (node (ref IC1) (pin 3))
      (node (ref IC1) (pin 21))
      (node (ref R8) (pin 1))
      (node (ref Q4) (pin 1))
      (node (ref Q6) (pin S))
      (node (ref R7) (pin 1))
      (node (ref R9) (pin 1))
      (node (ref P7) (pin 1))
      (node (ref Q1) (pin 1))
      (node (ref R22) (pin 1))
      (node (ref Q3) (pin S))
      (node (ref P2) (pin 10))
      (node (ref C18) (pin 2))
      (node (ref C19) (pin 2))
      (node (ref C20) (pin 2))
      (node (ref P8) (pin 1)))
    (net (code 9) (name /PHASE_A)
      (node (ref P10) (pin 1))
      (node (ref R4) (pin 2))
      (node (ref Q6) (pin D))
      (node (ref Q5) (pin S)))
    (net (code 10) (name /MOSI)
      (node (ref P2) (pin 1))
      (node (ref R2) (pin 1)))
    (net (code 11) (name /A+)
      (node (ref R20) (pin 2))
      (node (ref IC1) (pin 15))
      (node (ref R2) (pin 2)))
    (net (code 12) (name /PHASE_C)
      (node (ref P11) (pin 1))
      (node (ref R6) (pin 2))
      (node (ref Q8) (pin S))
      (node (ref Q9) (pin D)))
    (net (code 13) (name /PHASE_B)
      (node (ref R5) (pin 2))
      (node (ref P9) (pin 1))
      (node (ref Q3) (pin D))
      (node (ref Q2) (pin S)))
    (net (code 14) (name /NULL_A)
      (node (ref C20) (pin 1))
      (node (ref R9) (pin 2))
      (node (ref R13) (pin 2))
      (node (ref IC1) (pin 23))
      (node (ref R4) (pin 1)))
    (net (code 15) (name /NULL_C)
      (node (ref R7) (pin 2))
      (node (ref R15) (pin 2))
      (node (ref IC1) (pin 25))
      (node (ref C18) (pin 1))
      (node (ref R6) (pin 1)))
    (net (code 16) (name "")
      (node (ref R18) (pin 1))
      (node (ref Q1) (pin 2)))
    (net (code 17) (name /B-)
      (node (ref R19) (pin 2))
      (node (ref IC1) (pin 2)))
    (net (code 18) (name "")
      (node (ref Q3) (pin G))
      (node (ref R19) (pin 1))
      (node (ref R22) (pin 2)))
    (net (code 19) (name "")
      (node (ref Q2) (pin G))
      (node (ref Q1) (pin 3))
      (node (ref R21) (pin 1)))
    (net (code 20) (name /B+)
      (node (ref IC1) (pin 14))
      (node (ref R18) (pin 2)))
    (net (code 21) (name VCC)
      (node (ref Q2) (pin D))
      (node (ref R24) (pin 2))
      (node (ref R28) (pin 2))
      (node (ref Q8) (pin D))
      (node (ref Q5) (pin D))
      (node (ref R21) (pin 2))
      (node (ref R16) (pin 1)))
    (net (code 22) (name "")
      (node (ref Q7) (pin 2))
      (node (ref R26) (pin 1)))
    (net (code 23) (name /A-)
      (node (ref R23) (pin 2))
      (node (ref IC1) (pin 1)))
    (net (code 24) (name "")
      (node (ref R25) (pin 2))
      (node (ref R23) (pin 1))
      (node (ref Q6) (pin G)))
    (net (code 25) (name /C-)
      (node (ref IC1) (pin 9))
      (node (ref R27) (pin 2)))
    (net (code 26) (name /RXD)
      (node (ref IC1) (pin 30))
      (node (ref P2) (pin 8)))
    (net (code 27) (name "")
      (node (ref R27) (pin 1))
      (node (ref Q9) (pin G))
      (node (ref R29) (pin 2)))
    (net (code 28) (name "")
      (node (ref Q7) (pin 3))
      (node (ref Q8) (pin G))
      (node (ref R28) (pin 1)))
    (net (code 29) (name /C+)
      (node (ref IC1) (pin 13))
      (node (ref R26) (pin 2)))
    (net (code 30) (name "")
      (node (ref IC1) (pin 18))
      (node (ref R1) (pin 2))
      (node (ref C4) (pin 1)))
    (net (code 31) (name "")
      (node (ref D1) (pin 2))
      (node (ref R11) (pin 2)))
    (net (code 32) (name "")
      (node (ref R12) (pin 2))
      (node (ref D2) (pin 1)))
    (net (code 33) (name /V_BAT)
      (node (ref IC1) (pin 22))
      (node (ref R16) (pin 2))
      (node (ref R17) (pin 1))
      (node (ref C21) (pin 1)))
    (net (code 34) (name /LED_RED)
      (node (ref D1) (pin 1))
      (node (ref IC1) (pin 26)))
    (net (code 35) (name "")
      (node (ref C17) (pin 1))
      (node (ref R10) (pin 2))
      (node (ref IC1) (pin 19)))
    (net (code 36) (name /LED_GRN)
      (node (ref IC1) (pin 11))
      (node (ref D2) (pin 2)))
    (net (code 37) (name /ADDR1)
      (node (ref GS1) (pin 3))
      (node (ref IC1) (pin 7)))
    (net (code 38) (name /INT0)
      (node (ref IC1) (pin 32))
      (node (ref P2) (pin 6)))
    (net (code 39) (name /RESET)
      (node (ref C7) (pin 1))
      (node (ref IC1) (pin 29))
      (node (ref R3) (pin 2))
      (node (ref P2) (pin 5)))
    (net (code 40) (name /TXD)
      (node (ref IC1) (pin 31))
      (node (ref P2) (pin 3)))
    (net (code 41) (name /ADDR2)
      (node (ref IC1) (pin 8))
      (node (ref GS1) (pin 1)))
    (net (code 42) (name +5V)
      (node (ref U1) (pin ~))
      (node (ref C16) (pin 1))
      (node (ref C15) (pin 1))
      (node (ref R1) (pin 1))
      (node (ref R3) (pin 1))
      (node (ref P2) (pin 2))
      (node (ref P6) (pin 1))
      (node (ref IC1) (pin 6))
      (node (ref R12) (pin 1))
      (node (ref IC1) (pin 4))
      (node (ref C14) (pin 1))
      (node (ref C13) (pin 1)))
    (net (code 43) (name "")
      (node (ref C11) (pin 1))
      (node (ref C2) (pin 1))
      (node (ref P1) (pin 1))
      (node (ref C1) (pin 1))
      (node (ref C12) (pin 1))
      (node (ref C10) (pin 1))
      (node (ref U1) (pin ~))
      (node (ref C9) (pin 1))
      (node (ref C8) (pin 1))
      (node (ref C3) (pin 1))
      (node (ref C6) (pin 1))
      (node (ref C5) (pin 1)))))